gen_triangular_filters.vcd
$date
	Wed Nov 15 16:58:15 2023
$end
$version
	Icarus Verilog
$end
$timescale
	1ps
$end
$scope module gen_triangular_filters_tb $end
$var wire 32 ! filtered_out_9 [31:0] $end
$var wire 32 " filtered_out_8 [31:0] $end
$var wire 32 # filtered_out_7 [31:0] $end
$var wire 32 $ filtered_out_6 [31:0] $end
$var wire 32 % filtered_out_5 [31:0] $end
$var wire 32 & filtered_out_4 [31:0] $end
$var wire 32 ' filtered_out_3 [31:0] $end
$var wire 32 ( filtered_out_25 [31:0] $end
$var wire 32 ) filtered_out_24 [31:0] $end
$var wire 32 * filtered_out_23 [31:0] $end
$var wire 32 + filtered_out_22 [31:0] $end
$var wire 32 , filtered_out_21 [31:0] $end
$var wire 32 - filtered_out_20 [31:0] $end
$var wire 32 . filtered_out_2 [31:0] $end
$var wire 32 / filtered_out_19 [31:0] $end
$var wire 32 0 filtered_out_18 [31:0] $end
$var wire 32 1 filtered_out_17 [31:0] $end
$var wire 32 2 filtered_out_16 [31:0] $end
$var wire 32 3 filtered_out_15 [31:0] $end
$var wire 32 4 filtered_out_14 [31:0] $end
$var wire 32 5 filtered_out_13 [31:0] $end
$var wire 32 6 filtered_out_12 [31:0] $end
$var wire 32 7 filtered_out_11 [31:0] $end
$var wire 32 8 filtered_out_10 [31:0] $end
$var wire 32 9 filtered_out_1 [31:0] $end
$var wire 32 : filtered_out_0 [31:0] $end
$var reg 1 ; clk_in $end
$var reg 9 < k_in [8:0] $end
$var reg 32 = power_in [31:0] $end
$var reg 1 > rst_in $end
$scope module uut_0 $end
$var wire 1 ; clk_in $end
$var wire 9 ? k_in [8:0] $end
$var wire 32 @ power_in [31:0] $end
$var wire 1 > rst_in $end
$var reg 32 A filtered_out [31:0] $end
$var reg 22 B power_buffer [21:0] $end
$var reg 11 C scale_factor [10:0] $end
$upscope $end
$scope module uut_1 $end
$var wire 1 ; clk_in $end
$var wire 9 D k_in [8:0] $end
$var wire 32 E power_in [31:0] $end
$var wire 1 > rst_in $end
$var reg 32 F filtered_out [31:0] $end
$var reg 22 G power_buffer [21:0] $end
$var reg 11 H scale_factor [10:0] $end
$upscope $end
$scope module uut_10 $end
$var wire 1 ; clk_in $end
$var wire 9 I k_in [8:0] $end
$var wire 32 J power_in [31:0] $end
$var wire 1 > rst_in $end
$var reg 32 K filtered_out [31:0] $end
$var reg 22 L power_buffer [21:0] $end
$var reg 11 M scale_factor [10:0] $end
$upscope $end
$scope module uut_11 $end
$var wire 1 ; clk_in $end
$var wire 9 N k_in [8:0] $end
$var wire 32 O power_in [31:0] $end
$var wire 1 > rst_in $end
$var reg 32 P filtered_out [31:0] $end
$var reg 22 Q power_buffer [21:0] $end
$var reg 11 R scale_factor [10:0] $end
$upscope $end
$scope module uut_12 $end
$var wire 1 ; clk_in $end
$var wire 9 S k_in [8:0] $end
$var wire 32 T power_in [31:0] $end
$var wire 1 > rst_in $end
$var reg 32 U filtered_out [31:0] $end
$var reg 22 V power_buffer [21:0] $end
$var reg 11 W scale_factor [10:0] $end
$upscope $end
$scope module uut_13 $end
$var wire 1 ; clk_in $end
$var wire 9 X k_in [8:0] $end
$var wire 32 Y power_in [31:0] $end
$var wire 1 > rst_in $end
$var reg 32 Z filtered_out [31:0] $end
$var reg 22 [ power_buffer [21:0] $end
$var reg 11 \ scale_factor [10:0] $end
$upscope $end
$scope module uut_14 $end
$var wire 1 ; clk_in $end
$var wire 9 ] k_in [8:0] $end
$var wire 32 ^ power_in [31:0] $end
$var wire 1 > rst_in $end
$var reg 32 _ filtered_out [31:0] $end
$var reg 22 ` power_buffer [21:0] $end
$var reg 11 a scale_factor [10:0] $end
$upscope $end
$scope module uut_15 $end
$var wire 1 ; clk_in $end
$var wire 9 b k_in [8:0] $end
$var wire 32 c power_in [31:0] $end
$var wire 1 > rst_in $end
$var reg 32 d filtered_out [31:0] $end
$var reg 22 e power_buffer [21:0] $end
$var reg 11 f scale_factor [10:0] $end
$upscope $end
$scope module uut_16 $end
$var wire 1 ; clk_in $end
$var wire 9 g k_in [8:0] $end
$var wire 32 h power_in [31:0] $end
$var wire 1 > rst_in $end
$var reg 32 i filtered_out [31:0] $end
$var reg 22 j power_buffer [21:0] $end
$var reg 11 k scale_factor [10:0] $end
$upscope $end
$scope module uut_17 $end
$var wire 1 ; clk_in $end
$var wire 9 l k_in [8:0] $end
$var wire 32 m power_in [31:0] $end
$var wire 1 > rst_in $end
$var reg 32 n filtered_out [31:0] $end
$var reg 22 o power_buffer [21:0] $end
$var reg 11 p scale_factor [10:0] $end
$upscope $end
$scope module uut_18 $end
$var wire 1 ; clk_in $end
$var wire 9 q k_in [8:0] $end
$var wire 32 r power_in [31:0] $end
$var wire 1 > rst_in $end
$var reg 32 s filtered_out [31:0] $end
$var reg 22 t power_buffer [21:0] $end
$var reg 11 u scale_factor [10:0] $end
$upscope $end
$scope module uut_19 $end
$var wire 1 ; clk_in $end
$var wire 9 v k_in [8:0] $end
$var wire 32 w power_in [31:0] $end
$var wire 1 > rst_in $end
$var reg 32 x filtered_out [31:0] $end
$var reg 22 y power_buffer [21:0] $end
$var reg 11 z scale_factor [10:0] $end
$upscope $end
$scope module uut_2 $end
$var wire 1 ; clk_in $end
$var wire 9 { k_in [8:0] $end
$var wire 32 | power_in [31:0] $end
$var wire 1 > rst_in $end
$var reg 32 } filtered_out [31:0] $end
$var reg 22 ~ power_buffer [21:0] $end
$var reg 11 !" scale_factor [10:0] $end
$upscope $end
$scope module uut_20 $end
$var wire 1 ; clk_in $end
$var wire 9 "" k_in [8:0] $end
$var wire 32 #" power_in [31:0] $end
$var wire 1 > rst_in $end
$var reg 32 $" filtered_out [31:0] $end
$var reg 22 %" power_buffer [21:0] $end
$var reg 11 &" scale_factor [10:0] $end
$upscope $end
$scope module uut_21 $end
$var wire 1 ; clk_in $end
$var wire 9 '" k_in [8:0] $end
$var wire 32 (" power_in [31:0] $end
$var wire 1 > rst_in $end
$var reg 32 )" filtered_out [31:0] $end
$var reg 22 *" power_buffer [21:0] $end
$var reg 11 +" scale_factor [10:0] $end
$upscope $end
$scope module uut_22 $end
$var wire 1 ; clk_in $end
$var wire 9 ," k_in [8:0] $end
$var wire 32 -" power_in [31:0] $end
$var wire 1 > rst_in $end
$var reg 32 ." filtered_out [31:0] $end
$var reg 22 /" power_buffer [21:0] $end
$var reg 11 0" scale_factor [10:0] $end
$upscope $end
$scope module uut_23 $end
$var wire 1 ; clk_in $end
$var wire 9 1" k_in [8:0] $end
$var wire 32 2" power_in [31:0] $end
$var wire 1 > rst_in $end
$var reg 32 3" filtered_out [31:0] $end
$var reg 22 4" power_buffer [21:0] $end
$var reg 11 5" scale_factor [10:0] $end
$upscope $end
$scope module uut_24 $end
$var wire 1 ; clk_in $end
$var wire 9 6" k_in [8:0] $end
$var wire 32 7" power_in [31:0] $end
$var wire 1 > rst_in $end
$var reg 32 8" filtered_out [31:0] $end
$var reg 22 9" power_buffer [21:0] $end
$var reg 11 :" scale_factor [10:0] $end
$upscope $end
$scope module uut_25 $end
$var wire 1 ; clk_in $end
$var wire 9 ;" k_in [8:0] $end
$var wire 32 <" power_in [31:0] $end
$var wire 1 > rst_in $end
$var reg 32 =" filtered_out [31:0] $end
$var reg 22 >" power_buffer [21:0] $end
$var reg 11 ?" scale_factor [10:0] $end
$upscope $end
$scope module uut_3 $end
$var wire 1 ; clk_in $end
$var wire 9 @" k_in [8:0] $end
$var wire 32 A" power_in [31:0] $end
$var wire 1 > rst_in $end
$var reg 32 B" filtered_out [31:0] $end
$var reg 22 C" power_buffer [21:0] $end
$var reg 11 D" scale_factor [10:0] $end
$upscope $end
$scope module uut_4 $end
$var wire 1 ; clk_in $end
$var wire 9 E" k_in [8:0] $end
$var wire 32 F" power_in [31:0] $end
$var wire 1 > rst_in $end
$var reg 32 G" filtered_out [31:0] $end
$var reg 22 H" power_buffer [21:0] $end
$var reg 11 I" scale_factor [10:0] $end
$upscope $end
$scope module uut_5 $end
$var wire 1 ; clk_in $end
$var wire 9 J" k_in [8:0] $end
$var wire 32 K" power_in [31:0] $end
$var wire 1 > rst_in $end
$var reg 32 L" filtered_out [31:0] $end
$var reg 22 M" power_buffer [21:0] $end
$var reg 11 N" scale_factor [10:0] $end
$upscope $end
$scope module uut_6 $end
$var wire 1 ; clk_in $end
$var wire 9 O" k_in [8:0] $end
$var wire 32 P" power_in [31:0] $end
$var wire 1 > rst_in $end
$var reg 32 Q" filtered_out [31:0] $end
$var reg 22 R" power_buffer [21:0] $end
$var reg 11 S" scale_factor [10:0] $end
$upscope $end
$scope module uut_7 $end
$var wire 1 ; clk_in $end
$var wire 9 T" k_in [8:0] $end
$var wire 32 U" power_in [31:0] $end
$var wire 1 > rst_in $end
$var reg 32 V" filtered_out [31:0] $end
$var reg 22 W" power_buffer [21:0] $end
$var reg 11 X" scale_factor [10:0] $end
$upscope $end
$scope module uut_8 $end
$var wire 1 ; clk_in $end
$var wire 9 Y" k_in [8:0] $end
$var wire 32 Z" power_in [31:0] $end
$var wire 1 > rst_in $end
$var reg 32 [" filtered_out [31:0] $end
$var reg 22 \" power_buffer [21:0] $end
$var reg 11 ]" scale_factor [10:0] $end
$upscope $end
$scope module uut_9 $end
$var wire 1 ; clk_in $end
$var wire 9 ^" k_in [8:0] $end
$var wire 32 _" power_in [31:0] $end
$var wire 1 > rst_in $end
$var reg 32 `" filtered_out [31:0] $end
$var reg 22 a" power_buffer [21:0] $end
$var reg 11 b" scale_factor [10:0] $end
$upscope $end
$scope begin $ivl_for_loop0 $end
$var integer 32 c" i [31:0] $end
$upscope $end
$scope begin $ivl_for_loop1 $end
$var integer 32 d" i [31:0] $end
$upscope $end
$upscope $end
$enddefinitions $end
$comment Show the parameter values. $end
$dumpall
$end
#0
$dumpvars
b0 d"
b0 c"
bx b"
bx a"
bx `"
b0 _"
b0 ^"
bx ]"
bx \"
bx ["
b0 Z"
b0 Y"
bx X"
bx W"
bx V"
b0 U"
b0 T"
bx S"
bx R"
bx Q"
b0 P"
b0 O"
bx N"
bx M"
bx L"
b0 K"
b0 J"
bx I"
bx H"
bx G"
b0 F"
b0 E"
bx D"
bx C"
bx B"
b0 A"
b0 @"
bx ?"
bx >"
bx ="
b0 <"
b0 ;"
bx :"
bx 9"
bx 8"
b0 7"
b0 6"
bx 5"
bx 4"
bx 3"
b0 2"
b0 1"
bx 0"
bx /"
bx ."
b0 -"
b0 ,"
bx +"
bx *"
bx )"
b0 ("
b0 '"
bx &"
bx %"
bx $"
b0 #"
b0 ""
bx !"
bx ~
bx }
b0 |
b0 {
bx z
bx y
bx x
b0 w
b0 v
bx u
bx t
bx s
b0 r
b0 q
bx p
bx o
bx n
b0 m
b0 l
bx k
bx j
bx i
b0 h
b0 g
bx f
bx e
bx d
b0 c
b0 b
bx a
bx `
bx _
b0 ^
b0 ]
bx \
bx [
bx Z
b0 Y
b0 X
bx W
bx V
bx U
b0 T
b0 S
bx R
bx Q
bx P
b0 O
b0 N
bx M
bx L
bx K
b0 J
b0 I
bx H
bx G
bx F
b0 E
b0 D
bx C
bx B
bx A
b0 @
b0 ?
0>
b0 =
b0 <
0;
bx :
bx 9
bx 8
bx 7
bx 6
bx 5
bx 4
bx 3
bx 2
bx 1
bx 0
bx /
bx .
bx -
bx ,
bx +
bx *
bx )
bx (
bx '
bx &
bx %
bx $
bx #
bx "
bx !
$end
#5000
b0 C
b0 B
b0 H
b0 G
b0 !"
b0 ~
b0 D"
b0 C"
b0 I"
b0 H"
b0 N"
b0 M"
b0 S"
b0 R"
b0 X"
b0 W"
b0 ]"
b0 \"
b0 b"
b0 a"
b0 M
b0 L
b0 R
b0 Q
b0 W
b0 V
b0 \
b0 [
b0 a
b0 `
b0 f
b0 e
b0 k
b0 j
b0 p
b0 o
b0 u
b0 t
b0 z
b0 y
b0 &"
b0 %"
b0 +"
b0 *"
b0 0"
b0 /"
b0 5"
b0 4"
b0 :"
b0 9"
b0 ?"
b0 >"
1;
#10000
0;
1>
#15000
b0 (
b0 ="
b0 )
b0 8"
b0 *
b0 3"
b0 +
b0 ."
b0 ,
b0 )"
b0 -
b0 $"
b0 /
b0 x
b0 0
b0 s
b0 1
b0 n
b0 2
b0 i
b0 3
b0 d
b0 4
b0 _
b0 5
b0 Z
b0 6
b0 U
b0 7
b0 P
b0 8
b0 K
b0 !
b0 `"
b0 "
b0 ["
b0 #
b0 V"
b0 $
b0 Q"
b0 %
b0 L"
b0 &
b0 G"
b0 '
b0 B"
b0 .
b0 }
b0 9
b0 F
b0 :
b0 A
1;
#20000
0;
0>
#25000
1;
#30000
0;
b11011110101011011011111011101111 =
b11011110101011011011111011101111 @
b11011110101011011011111011101111 E
b11011110101011011011111011101111 J
b11011110101011011011111011101111 O
b11011110101011011011111011101111 T
b11011110101011011011111011101111 Y
b11011110101011011011111011101111 ^
b11011110101011011011111011101111 c
b11011110101011011011111011101111 h
b11011110101011011011111011101111 m
b11011110101011011011111011101111 r
b11011110101011011011111011101111 w
b11011110101011011011111011101111 |
b11011110101011011011111011101111 #"
b11011110101011011011111011101111 ("
b11011110101011011011111011101111 -"
b11011110101011011011111011101111 2"
b11011110101011011011111011101111 7"
b11011110101011011011111011101111 <"
b11011110101011011011111011101111 A"
b11011110101011011011111011101111 F"
b11011110101011011011111011101111 K"
b11011110101011011011111011101111 P"
b11011110101011011011111011101111 U"
b11011110101011011011111011101111 Z"
b11011110101011011011111011101111 _"
#35000
b1101111010101101101111 >"
b1101111010101101101111 9"
b1101111010101101101111 4"
b1101111010101101101111 /"
b1101111010101101101111 *"
b1101111010101101101111 %"
b1101111010101101101111 y
b1101111010101101101111 t
b1101111010101101101111 o
b1101111010101101101111 j
b1101111010101101101111 e
b1101111010101101101111 `
b1101111010101101101111 [
b1101111010101101101111 V
b1101111010101101101111 Q
b1101111010101101101111 L
b1101111010101101101111 a"
b1101111010101101101111 \"
b1101111010101101101111 W"
b1101111010101101101111 R"
b1101111010101101101111 M"
b1101111010101101101111 H"
b1101111010101101101111 C"
b1101111010101101101111 ~
b1101111010101101101111 G
b1101111010101101101111 B
1;
#40000
0;
b1 <
b1 ?
b1 D
b1 I
b1 N
b1 S
b1 X
b1 ]
b1 b
b1 g
b1 l
b1 q
b1 v
b1 {
b1 ""
b1 '"
b1 ,"
b1 1"
b1 6"
b1 ;"
b1 @"
b1 E"
b1 J"
b1 O"
b1 T"
b1 Y"
b1 ^"
b1 c"
#45000
1;
#50000
0;
b10 <
b10 ?
b10 D
b10 I
b10 N
b10 S
b10 X
b10 ]
b10 b
b10 g
b10 l
b10 q
b10 v
b10 {
b10 ""
b10 '"
b10 ,"
b10 1"
b10 6"
b10 ;"
b10 @"
b10 E"
b10 J"
b10 O"
b10 T"
b10 Y"
b10 ^"
b10 c"
#55000
1;
#60000
0;
b11 <
b11 ?
b11 D
b11 I
b11 N
b11 S
b11 X
b11 ]
b11 b
b11 g
b11 l
b11 q
b11 v
b11 {
b11 ""
b11 '"
b11 ,"
b11 1"
b11 6"
b11 ;"
b11 @"
b11 E"
b11 J"
b11 O"
b11 T"
b11 Y"
b11 ^"
b11 c"
#65000
b100000000 C
1;
#70000
0;
b100 <
b100 ?
b100 D
b100 I
b100 N
b100 S
b100 X
b100 ]
b100 b
b100 g
b100 l
b100 q
b100 v
b100 {
b100 ""
b100 '"
b100 ,"
b100 1"
b100 6"
b100 ;"
b100 @"
b100 E"
b100 J"
b100 O"
b100 T"
b100 Y"
b100 ^"
b100 c"
#75000
b110111101010110110111100000000 :
b110111101010110110111100000000 A
b1000000000 C
1;
#80000
0;
b101 <
b101 ?
b101 D
b101 I
b101 N
b101 S
b101 X
b101 ]
b101 b
b101 g
b101 l
b101 q
b101 v
b101 {
b101 ""
b101 '"
b101 ,"
b101 1"
b101 6"
b101 ;"
b101 @"
b101 E"
b101 J"
b101 O"
b101 T"
b101 Y"
b101 ^"
b101 c"
#85000
b1101111010101101101111000000000 :
b1101111010101101101111000000000 A
b1100000000 C
1;
#90000
0;
b110 <
b110 ?
b110 D
b110 I
b110 N
b110 S
b110 X
b110 ]
b110 b
b110 g
b110 l
b110 q
b110 v
b110 {
b110 ""
b110 '"
b110 ,"
b110 1"
b110 6"
b110 ;"
b110 @"
b110 E"
b110 J"
b110 O"
b110 T"
b110 Y"
b110 ^"
b110 c"
#95000
b10100111000000100100110100000000 :
b10100111000000100100110100000000 A
b10000000000 C
1;
#100000
0;
b111 <
b111 ?
b111 D
b111 I
b111 N
b111 S
b111 X
b111 ]
b111 b
b111 g
b111 l
b111 q
b111 v
b111 {
b111 ""
b111 '"
b111 ,"
b111 1"
b111 6"
b111 ;"
b111 @"
b111 E"
b111 J"
b111 O"
b111 T"
b111 Y"
b111 ^"
b111 c"
#105000
b11011110101011011011110000000000 :
b11011110101011011011110000000000 A
b1100000000 C
b100000000 H
1;
#110000
0;
b1000 <
b1000 ?
b1000 D
b1000 I
b1000 N
b1000 S
b1000 X
b1000 ]
b1000 b
b1000 g
b1000 l
b1000 q
b1000 v
b1000 {
b1000 ""
b1000 '"
b1000 ,"
b1000 1"
b1000 6"
b1000 ;"
b1000 @"
b1000 E"
b1000 J"
b1000 O"
b1000 T"
b1000 Y"
b1000 ^"
b1000 c"
#115000
b110111101010110110111100000000 9
b110111101010110110111100000000 F
b1000000000 H
b10100111000000100100110100000000 :
b10100111000000100100110100000000 A
b1000000000 C
1;
#120000
0;
b1001 <
b1001 ?
b1001 D
b1001 I
b1001 N
b1001 S
b1001 X
b1001 ]
b1001 b
b1001 g
b1001 l
b1001 q
b1001 v
b1001 {
b1001 ""
b1001 '"
b1001 ,"
b1001 1"
b1001 6"
b1001 ;"
b1001 @"
b1001 E"
b1001 J"
b1001 O"
b1001 T"
b1001 Y"
b1001 ^"
b1001 c"
#125000
b1101111010101101101111000000000 :
b1101111010101101101111000000000 A
b100000000 C
b1101111010101101101111000000000 9
b1101111010101101101111000000000 F
b1100000000 H
1;
#130000
0;
b1010 <
b1010 ?
b1010 D
b1010 I
b1010 N
b1010 S
b1010 X
b1010 ]
b1010 b
b1010 g
b1010 l
b1010 q
b1010 v
b1010 {
b1010 ""
b1010 '"
b1010 ,"
b1010 1"
b1010 6"
b1010 ;"
b1010 @"
b1010 E"
b1010 J"
b1010 O"
b1010 T"
b1010 Y"
b1010 ^"
b1010 c"
#135000
b10100111000000100100110100000000 9
b10100111000000100100110100000000 F
b10000000000 H
b110111101010110110111100000000 :
b110111101010110110111100000000 A
b0 C
1;
#140000
0;
b1011 <
b1011 ?
b1011 D
b1011 I
b1011 N
b1011 S
b1011 X
b1011 ]
b1011 b
b1011 g
b1011 l
b1011 q
b1011 v
b1011 {
b1011 ""
b1011 '"
b1011 ,"
b1011 1"
b1011 6"
b1011 ;"
b1011 @"
b1011 E"
b1011 J"
b1011 O"
b1011 T"
b1011 Y"
b1011 ^"
b1011 c"
#145000
b0 :
b0 A
b11011110101011011011110000000000 9
b11011110101011011011110000000000 F
b1100000000 H
b100000000 !"
1;
#150000
0;
b1100 <
b1100 ?
b1100 D
b1100 I
b1100 N
b1100 S
b1100 X
b1100 ]
b1100 b
b1100 g
b1100 l
b1100 q
b1100 v
b1100 {
b1100 ""
b1100 '"
b1100 ,"
b1100 1"
b1100 6"
b1100 ;"
b1100 @"
b1100 E"
b1100 J"
b1100 O"
b1100 T"
b1100 Y"
b1100 ^"
b1100 c"
#155000
b110111101010110110111100000000 .
b110111101010110110111100000000 }
b1000000000 !"
b10100111000000100100110100000000 9
b10100111000000100100110100000000 F
b1000000000 H
1;
#160000
0;
b1101 <
b1101 ?
b1101 D
b1101 I
b1101 N
b1101 S
b1101 X
b1101 ]
b1101 b
b1101 g
b1101 l
b1101 q
b1101 v
b1101 {
b1101 ""
b1101 '"
b1101 ,"
b1101 1"
b1101 6"
b1101 ;"
b1101 @"
b1101 E"
b1101 J"
b1101 O"
b1101 T"
b1101 Y"
b1101 ^"
b1101 c"
#165000
b1101111010101101101111000000000 9
b1101111010101101101111000000000 F
b100000000 H
b1101111010101101101111000000000 .
b1101111010101101101111000000000 }
b1100000000 !"
1;
#170000
0;
b1110 <
b1110 ?
b1110 D
b1110 I
b1110 N
b1110 S
b1110 X
b1110 ]
b1110 b
b1110 g
b1110 l
b1110 q
b1110 v
b1110 {
b1110 ""
b1110 '"
b1110 ,"
b1110 1"
b1110 6"
b1110 ;"
b1110 @"
b1110 E"
b1110 J"
b1110 O"
b1110 T"
b1110 Y"
b1110 ^"
b1110 c"
#175000
b10100111000000100100110100000000 .
b10100111000000100100110100000000 }
b10000000000 !"
b110111101010110110111100000000 9
b110111101010110110111100000000 F
b0 H
1;
#180000
0;
b1111 <
b1111 ?
b1111 D
b1111 I
b1111 N
b1111 S
b1111 X
b1111 ]
b1111 b
b1111 g
b1111 l
b1111 q
b1111 v
b1111 {
b1111 ""
b1111 '"
b1111 ,"
b1111 1"
b1111 6"
b1111 ;"
b1111 @"
b1111 E"
b1111 J"
b1111 O"
b1111 T"
b1111 Y"
b1111 ^"
b1111 c"
#185000
b0 9
b0 F
b11011110101011011011110000000000 .
b11011110101011011011110000000000 }
b1100110011 !"
b11001101 D"
1;
#190000
0;
b10000 <
b10000 ?
b10000 D
b10000 I
b10000 N
b10000 S
b10000 X
b10000 ]
b10000 b
b10000 g
b10000 l
b10000 q
b10000 v
b10000 {
b10000 ""
b10000 '"
b10000 ,"
b10000 1"
b10000 6"
b10000 ;"
b10000 @"
b10000 E"
b10000 J"
b10000 O"
b10000 T"
b10000 Y"
b10000 ^"
b10000 c"
#195000
b101100100101000100011111100011 '
b101100100101000100011111100011 B"
b110011010 D"
b10110010000110010111010000011101 .
b10110010000110010111010000011101 }
b1001100110 !"
1;
#200000
0;
b10001 <
b10001 ?
b10001 D
b10001 I
b10001 N
b10001 S
b10001 X
b10001 ]
b10001 b
b10001 g
b10001 l
b10001 q
b10001 v
b10001 {
b10001 ""
b10001 '"
b10001 ,"
b10001 1"
b10001 6"
b10001 ;"
b10001 @"
b10001 E"
b10001 J"
b10001 O"
b10001 T"
b10001 Y"
b10001 ^"
b10001 c"
#205000
b10000101100001010010110000111010 .
b10000101100001010010110000111010 }
b110011010 !"
b1011001001010001000111111000110 '
b1011001001010001000111111000110 B"
b1001100110 D"
1;
#210000
0;
b10010 <
b10010 ?
b10010 D
b10010 I
b10010 N
b10010 S
b10010 X
b10010 ]
b10010 b
b10010 g
b10010 l
b10010 q
b10010 v
b10010 {
b10010 ""
b10010 '"
b10010 ,"
b10010 1"
b10010 6"
b10010 ;"
b10010 @"
b10010 E"
b10010 J"
b10010 O"
b10010 T"
b10010 Y"
b10010 ^"
b10010 c"
#215000
b10000101100001010010110000111010 '
b10000101100001010010110000111010 B"
b1100110011 D"
b1011001001010001000111111000110 .
b1011001001010001000111111000110 }
b11001101 !"
1;
#220000
0;
b10011 <
b10011 ?
b10011 D
b10011 I
b10011 N
b10011 S
b10011 X
b10011 ]
b10011 b
b10011 g
b10011 l
b10011 q
b10011 v
b10011 {
b10011 ""
b10011 '"
b10011 ,"
b10011 1"
b10011 6"
b10011 ;"
b10011 @"
b10011 E"
b10011 J"
b10011 O"
b10011 T"
b10011 Y"
b10011 ^"
b10011 c"
#225000
b101100100101000100011111100011 .
b101100100101000100011111100011 }
b0 !"
b10110010000110010111010000011101 '
b10110010000110010111010000011101 B"
b10000000000 D"
1;
#230000
0;
b10100 <
b10100 ?
b10100 D
b10100 I
b10100 N
b10100 S
b10100 X
b10100 ]
b10100 b
b10100 g
b10100 l
b10100 q
b10100 v
b10100 {
b10100 ""
b10100 '"
b10100 ,"
b10100 1"
b10100 6"
b10100 ;"
b10100 @"
b10100 E"
b10100 J"
b10100 O"
b10100 T"
b10100 Y"
b10100 ^"
b10100 c"
#235000
b11001101 I"
b11011110101011011011110000000000 '
b11011110101011011011110000000000 B"
b1100110011 D"
b0 .
b0 }
1;
#240000
0;
b10101 <
b10101 ?
b10101 D
b10101 I
b10101 N
b10101 S
b10101 X
b10101 ]
b10101 b
b10101 g
b10101 l
b10101 q
b10101 v
b10101 {
b10101 ""
b10101 '"
b10101 ,"
b10101 1"
b10101 6"
b10101 ;"
b10101 @"
b10101 E"
b10101 J"
b10101 O"
b10101 T"
b10101 Y"
b10101 ^"
b10101 c"
#245000
b10110010000110010111010000011101 '
b10110010000110010111010000011101 B"
b1001100110 D"
b101100100101000100011111100011 &
b101100100101000100011111100011 G"
b110011010 I"
1;
#250000
0;
b10110 <
b10110 ?
b10110 D
b10110 I
b10110 N
b10110 S
b10110 X
b10110 ]
b10110 b
b10110 g
b10110 l
b10110 q
b10110 v
b10110 {
b10110 ""
b10110 '"
b10110 ,"
b10110 1"
b10110 6"
b10110 ;"
b10110 @"
b10110 E"
b10110 J"
b10110 O"
b10110 T"
b10110 Y"
b10110 ^"
b10110 c"
#255000
b1011001001010001000111111000110 &
b1011001001010001000111111000110 G"
b1001100110 I"
b10000101100001010010110000111010 '
b10000101100001010010110000111010 B"
b110011010 D"
1;
#260000
0;
b10111 <
b10111 ?
b10111 D
b10111 I
b10111 N
b10111 S
b10111 X
b10111 ]
b10111 b
b10111 g
b10111 l
b10111 q
b10111 v
b10111 {
b10111 ""
b10111 '"
b10111 ,"
b10111 1"
b10111 6"
b10111 ;"
b10111 @"
b10111 E"
b10111 J"
b10111 O"
b10111 T"
b10111 Y"
b10111 ^"
b10111 c"
#265000
b1011001001010001000111111000110 '
b1011001001010001000111111000110 B"
b11001101 D"
b10000101100001010010110000111010 &
b10000101100001010010110000111010 G"
b1100110011 I"
1;
#270000
0;
b11000 <
b11000 ?
b11000 D
b11000 I
b11000 N
b11000 S
b11000 X
b11000 ]
b11000 b
b11000 g
b11000 l
b11000 q
b11000 v
b11000 {
b11000 ""
b11000 '"
b11000 ,"
b11000 1"
b11000 6"
b11000 ;"
b11000 @"
b11000 E"
b11000 J"
b11000 O"
b11000 T"
b11000 Y"
b11000 ^"
b11000 c"
#275000
b10110010000110010111010000011101 &
b10110010000110010111010000011101 G"
b10000000000 I"
b101100100101000100011111100011 '
b101100100101000100011111100011 B"
b0 D"
1;
#280000
0;
b11001 <
b11001 ?
b11001 D
b11001 I
b11001 N
b11001 S
b11001 X
b11001 ]
b11001 b
b11001 g
b11001 l
b11001 q
b11001 v
b11001 {
b11001 ""
b11001 '"
b11001 ,"
b11001 1"
b11001 6"
b11001 ;"
b11001 @"
b11001 E"
b11001 J"
b11001 O"
b11001 T"
b11001 Y"
b11001 ^"
b11001 c"
#285000
b0 '
b0 B"
b11011110101011011011110000000000 &
b11011110101011011011110000000000 G"
b1100110011 I"
b11001101 N"
1;
#290000
0;
b11010 <
b11010 ?
b11010 D
b11010 I
b11010 N
b11010 S
b11010 X
b11010 ]
b11010 b
b11010 g
b11010 l
b11010 q
b11010 v
b11010 {
b11010 ""
b11010 '"
b11010 ,"
b11010 1"
b11010 6"
b11010 ;"
b11010 @"
b11010 E"
b11010 J"
b11010 O"
b11010 T"
b11010 Y"
b11010 ^"
b11010 c"
#295000
b101100100101000100011111100011 %
b101100100101000100011111100011 L"
b110011010 N"
b10110010000110010111010000011101 &
b10110010000110010111010000011101 G"
b1001100110 I"
1;
#300000
0;
b11011 <
b11011 ?
b11011 D
b11011 I
b11011 N
b11011 S
b11011 X
b11011 ]
b11011 b
b11011 g
b11011 l
b11011 q
b11011 v
b11011 {
b11011 ""
b11011 '"
b11011 ,"
b11011 1"
b11011 6"
b11011 ;"
b11011 @"
b11011 E"
b11011 J"
b11011 O"
b11011 T"
b11011 Y"
b11011 ^"
b11011 c"
#305000
b10000101100001010010110000111010 &
b10000101100001010010110000111010 G"
b110011010 I"
b1011001001010001000111111000110 %
b1011001001010001000111111000110 L"
b1001100110 N"
1;
#310000
0;
b11100 <
b11100 ?
b11100 D
b11100 I
b11100 N
b11100 S
b11100 X
b11100 ]
b11100 b
b11100 g
b11100 l
b11100 q
b11100 v
b11100 {
b11100 ""
b11100 '"
b11100 ,"
b11100 1"
b11100 6"
b11100 ;"
b11100 @"
b11100 E"
b11100 J"
b11100 O"
b11100 T"
b11100 Y"
b11100 ^"
b11100 c"
#315000
b10000101100001010010110000111010 %
b10000101100001010010110000111010 L"
b1100110011 N"
b1011001001010001000111111000110 &
b1011001001010001000111111000110 G"
b11001101 I"
1;
#320000
0;
b11101 <
b11101 ?
b11101 D
b11101 I
b11101 N
b11101 S
b11101 X
b11101 ]
b11101 b
b11101 g
b11101 l
b11101 q
b11101 v
b11101 {
b11101 ""
b11101 '"
b11101 ,"
b11101 1"
b11101 6"
b11101 ;"
b11101 @"
b11101 E"
b11101 J"
b11101 O"
b11101 T"
b11101 Y"
b11101 ^"
b11101 c"
#325000
b101100100101000100011111100011 &
b101100100101000100011111100011 G"
b0 I"
b10110010000110010111010000011101 %
b10110010000110010111010000011101 L"
b10000000000 N"
1;
#330000
0;
b11110 <
b11110 ?
b11110 D
b11110 I
b11110 N
b11110 S
b11110 X
b11110 ]
b11110 b
b11110 g
b11110 l
b11110 q
b11110 v
b11110 {
b11110 ""
b11110 '"
b11110 ,"
b11110 1"
b11110 6"
b11110 ;"
b11110 @"
b11110 E"
b11110 J"
b11110 O"
b11110 T"
b11110 Y"
b11110 ^"
b11110 c"
#335000
b11001101 S"
b11011110101011011011110000000000 %
b11011110101011011011110000000000 L"
b1100110011 N"
b0 &
b0 G"
1;
