logarithm.vcd
$date
	Wed Nov  8 22:34:26 2023
$end
$version
	Icarus Verilog
$end
$timescale
	1ps
$end
$scope module logarithm_tb $end
$var wire 1 ! log_valid_out $end
$var wire 16 " log_data_out [15:0] $end
$var wire 1 # filtered_ready_out $end
$var reg 1 $ clk_in $end
$var reg 32 % filtered_data_in [31:0] $end
$var reg 1 & filtered_valid_in $end
$var reg 1 ' log_ready_in $end
$var reg 1 ( rst_in $end
$scope module uut $end
$var wire 1 $ clk_in $end
$var wire 32 ) filtered_data_in [31:0] $end
$var wire 1 & filtered_valid_in $end
$var wire 1 ' log_ready_in $end
$var wire 1 ( rst_in $end
$var reg 1 # filtered_ready_out $end
$var reg 16 * log_data_out [15:0] $end
$var reg 1 ! log_valid_out $end
$var reg 11 + res_frac [10:0] $end
$var reg 6 , res_int [5:0] $end
$var reg 32 - shifted [31:0] $end
$upscope $end
$scope begin $ivl_for_loop0 $end
$var integer 32 . i [31:0] $end
$upscope $end
$scope begin $ivl_for_loop1 $end
$var integer 32 / i [31:0] $end
$upscope $end
$scope begin $ivl_for_loop2 $end
$var integer 32 0 i [31:0] $end
$upscope $end
$scope begin $ivl_for_loop3 $end
$var integer 32 1 i [31:0] $end
$upscope $end
$upscope $end
$enddefinitions $end
$comment Show the parameter values. $end
$dumpall
$end
#0
$dumpvars
b0 1
b0 0
b0 /
b0 .
b10000000000000000000000000000000 -
b110000 ,
b0 +
bx *
b1 )
0(
0'
0&
b1 %
0$
x#
bx "
x!
$end
#5000
0#
0!
b1000000000000000 "
b1000000000000000 *
1$
#10000
0$
1(
#15000
b0 "
b0 *
1$
#20000
0$
0(
#25000
b1000000000000000 "
b1000000000000000 *
1$
#30000
0$
b1 .
1'
1&
#35000
1#
1!
1$
#40000
b110001 ,
b10000000000000000000000000000000 -
0$
b10 %
b10 )
b10 .
#45000
b1000100000000000 "
b1000100000000000 *
1$
#50000
b10000000000 +
b11000000000000000000000000000000 -
b110001 ,
0$
b11 %
b11 )
b11 .
#55000
b1000110000000000 "
b1000110000000000 *
1$
#60000
b0 +
b10000000000000000000000000000000 -
b110010 ,
0$
b100 %
b100 )
b100 .
#65000
b1001000000000000 "
b1001000000000000 *
1$
#70000
b1000000000 +
b10100000000000000000000000000000 -
b110010 ,
0$
b101 %
b101 )
b101 .
#75000
b1001001000000000 "
b1001001000000000 *
1$
#80000
b10000000000 +
b11000000000000000000000000000000 -
b110010 ,
0$
b110 %
b110 )
b110 .
#85000
b1001010000000000 "
b1001010000000000 *
1$
#90000
b11000000000 +
b11100000000000000000000000000000 -
b110010 ,
0$
b111 %
b111 )
b111 .
#95000
b1001011000000000 "
b1001011000000000 *
1$
#100000
b0 +
b10000000000000000000000000000000 -
b110011 ,
0$
b1000 %
b1000 )
b1000 .
#105000
b1001100000000000 "
b1001100000000000 *
1$
#110000
b100000000 +
b10010000000000000000000000000000 -
b110011 ,
0$
b1001 %
b1001 )
b1001 .
#115000
b1001100100000000 "
b1001100100000000 *
1$
#120000
b1000000000 +
b10100000000000000000000000000000 -
b110011 ,
0$
b1010 %
b1010 )
b1010 .
#125000
b1001101000000000 "
b1001101000000000 *
1$
#130000
b1100000000 +
b10110000000000000000000000000000 -
b110011 ,
0$
b1011 %
b1011 )
b1011 .
#135000
b1001101100000000 "
b1001101100000000 *
1$
#140000
b10000000000 +
b11000000000000000000000000000000 -
b110011 ,
0$
b1100 %
b1100 )
b1100 .
#145000
b1001110000000000 "
b1001110000000000 *
1$
#150000
b10100000000 +
b11010000000000000000000000000000 -
b110011 ,
0$
b1101 %
b1101 )
b1101 .
#155000
b1001110100000000 "
b1001110100000000 *
1$
#160000
b11000000000 +
b11100000000000000000000000000000 -
b110011 ,
0$
b1110 %
b1110 )
b1110 .
#165000
b1001111000000000 "
b1001111000000000 *
1$
#170000
b11100000000 +
b11110000000000000000000000000000 -
b110011 ,
0$
b1111 %
b1111 )
b1111 .
#175000
b1001111100000000 "
b1001111100000000 *
1$
#180000
b0 +
b10000000000000000000000000000000 -
b110100 ,
0$
b10000 %
b10000 )
b10000 .
#185000
b1010000000000000 "
b1010000000000000 *
1$
#190000
b10000000 +
b10001000000000000000000000000000 -
b110100 ,
0$
b10001 %
b10001 )
b10001 .
#195000
b1010000010000000 "
b1010000010000000 *
1$
#200000
b100000000 +
b10010000000000000000000000000000 -
b110100 ,
0$
b10010 %
b10010 )
b10010 .
#205000
b1010000100000000 "
b1010000100000000 *
1$
#210000
b110000000 +
b10011000000000000000000000000000 -
b110100 ,
0$
b10011 %
b10011 )
b10011 .
#215000
b1010000110000000 "
b1010000110000000 *
1$
#220000
b1000000000 +
b10100000000000000000000000000000 -
b110100 ,
0$
b10100 %
b10100 )
b10100 .
#225000
b1010001000000000 "
b1010001000000000 *
1$
#230000
b1010000000 +
b10101000000000000000000000000000 -
b110100 ,
0$
b10101 %
b10101 )
b10101 .
#235000
b1010001010000000 "
b1010001010000000 *
1$
#240000
b1100000000 +
b10110000000000000000000000000000 -
b110100 ,
0$
b10110 %
b10110 )
b10110 .
#245000
b1010001100000000 "
b1010001100000000 *
1$
#250000
b1110000000 +
b10111000000000000000000000000000 -
b110100 ,
0$
b10111 %
b10111 )
b10111 .
#255000
b1010001110000000 "
b1010001110000000 *
1$
#260000
b10000000000 +
b11000000000000000000000000000000 -
b110100 ,
0$
b11000 %
b11000 )
b11000 .
#265000
b1010010000000000 "
b1010010000000000 *
1$
#270000
b10010000000 +
b11001000000000000000000000000000 -
b110100 ,
0$
b11001 %
b11001 )
b11001 .
#275000
b1010010010000000 "
b1010010010000000 *
1$
#280000
b10100000000 +
b11010000000000000000000000000000 -
b110100 ,
0$
b11010 %
b11010 )
b11010 .
#285000
b1010010100000000 "
b1010010100000000 *
1$
#290000
b10110000000 +
b11011000000000000000000000000000 -
b110100 ,
0$
b11011 %
b11011 )
b11011 .
#295000
b1010010110000000 "
b1010010110000000 *
1$
#300000
b11000000000 +
b11100000000000000000000000000000 -
b110100 ,
0$
b11100 %
b11100 )
b11100 .
#305000
b1010011000000000 "
b1010011000000000 *
1$
#310000
b11010000000 +
b11101000000000000000000000000000 -
b110100 ,
0$
b11101 %
b11101 )
b11101 .
#315000
b1010011010000000 "
b1010011010000000 *
1$
#320000
b11100000000 +
b11110000000000000000000000000000 -
b110100 ,
0$
b11110 %
b11110 )
b11110 .
#325000
b1010011100000000 "
b1010011100000000 *
1$
#330000
b11110000000 +
b11111000000000000000000000000000 -
b110100 ,
0$
b11111 %
b11111 )
b11111 .
#335000
b1010011110000000 "
b1010011110000000 *
1$
#340000
b0 +
b10000000000000000000000000000000 -
b110101 ,
0$
b100000 %
b100000 )
b100000 .
#345000
b1010100000000000 "
b1010100000000000 *
1$
#350000
b1000000 +
b10000100000000000000000000000000 -
b110101 ,
0$
b100001 %
b100001 )
b100001 .
#355000
b1010100001000000 "
b1010100001000000 *
1$
#360000
b10000000 +
b10001000000000000000000000000000 -
b110101 ,
0$
b100010 %
b100010 )
b100010 .
#365000
b1010100010000000 "
b1010100010000000 *
1$
#370000
b11000000 +
b10001100000000000000000000000000 -
b110101 ,
0$
b100011 %
b100011 )
b100011 .
#375000
b1010100011000000 "
b1010100011000000 *
1$
#380000
b100000000 +
b10010000000000000000000000000000 -
b110101 ,
0$
b100100 %
b100100 )
b100100 .
#385000
b1010100100000000 "
b1010100100000000 *
1$
#390000
b101000000 +
b10010100000000000000000000000000 -
b110101 ,
0$
b100101 %
b100101 )
b100101 .
#395000
b1010100101000000 "
b1010100101000000 *
1$
#400000
b110000000 +
b10011000000000000000000000000000 -
b110101 ,
0$
b100110 %
b100110 )
b100110 .
#405000
b1010100110000000 "
b1010100110000000 *
1$
#410000
b111000000 +
b10011100000000000000000000000000 -
b110101 ,
0$
b100111 %
b100111 )
b100111 .
#415000
b1010100111000000 "
b1010100111000000 *
1$
#420000
b1000000000 +
b10100000000000000000000000000000 -
b110101 ,
0$
b101000 %
b101000 )
b101000 .
#425000
b1010101000000000 "
b1010101000000000 *
1$
#430000
b1001000000 +
b10100100000000000000000000000000 -
b110101 ,
0$
b101001 %
b101001 )
b101001 .
#435000
b1010101001000000 "
b1010101001000000 *
1$
#440000
b1010000000 +
b10101000000000000000000000000000 -
b110101 ,
0$
b101010 %
b101010 )
b101010 .
#445000
b1010101010000000 "
b1010101010000000 *
1$
#450000
b1011000000 +
b10101100000000000000000000000000 -
b110101 ,
0$
b101011 %
b101011 )
b101011 .
#455000
b1010101011000000 "
b1010101011000000 *
1$
#460000
b1100000000 +
b10110000000000000000000000000000 -
b110101 ,
0$
b101100 %
b101100 )
b101100 .
#465000
b1010101100000000 "
b1010101100000000 *
1$
#470000
b1101000000 +
b10110100000000000000000000000000 -
b110101 ,
0$
b101101 %
b101101 )
b101101 .
#475000
b1010101101000000 "
b1010101101000000 *
1$
#480000
b1110000000 +
b10111000000000000000000000000000 -
b110101 ,
0$
b101110 %
b101110 )
b101110 .
#485000
b1010101110000000 "
b1010101110000000 *
1$
#490000
b1111000000 +
b10111100000000000000000000000000 -
b110101 ,
0$
b101111 %
b101111 )
b101111 .
#495000
b1010101111000000 "
b1010101111000000 *
1$
#500000
b10000000000 +
b11000000000000000000000000000000 -
b110101 ,
0$
b110000 %
b110000 )
b110000 .
#505000
b1010110000000000 "
b1010110000000000 *
1$
#510000
b10001000000 +
b11000100000000000000000000000000 -
b110101 ,
0$
b110001 %
b110001 )
b110001 .
#515000
b1010110001000000 "
b1010110001000000 *
1$
#520000
b10010000000 +
b11001000000000000000000000000000 -
b110101 ,
0$
b110010 %
b110010 )
b110010 .
#525000
b1010110010000000 "
b1010110010000000 *
1$
#530000
b10011000000 +
b11001100000000000000000000000000 -
b110101 ,
0$
b110011 %
b110011 )
b110011 .
#535000
b1010110011000000 "
b1010110011000000 *
1$
#540000
b10100000000 +
b11010000000000000000000000000000 -
b110101 ,
0$
b110100 %
b110100 )
b110100 .
#545000
b1010110100000000 "
b1010110100000000 *
1$
#550000
b10101000000 +
b11010100000000000000000000000000 -
b110101 ,
0$
b110101 %
b110101 )
b110101 .
#555000
b1010110101000000 "
b1010110101000000 *
1$
#560000
b10110000000 +
b11011000000000000000000000000000 -
b110101 ,
0$
b110110 %
b110110 )
b110110 .
#565000
b1010110110000000 "
b1010110110000000 *
1$
#570000
b10111000000 +
b11011100000000000000000000000000 -
b110101 ,
0$
b110111 %
b110111 )
b110111 .
#575000
b1010110111000000 "
b1010110111000000 *
1$
#580000
b11000000000 +
b11100000000000000000000000000000 -
b110101 ,
0$
b111000 %
b111000 )
b111000 .
#585000
b1010111000000000 "
b1010111000000000 *
1$
#590000
b11001000000 +
b11100100000000000000000000000000 -
b110101 ,
0$
b111001 %
b111001 )
b111001 .
#595000
b1010111001000000 "
b1010111001000000 *
1$
#600000
b11010000000 +
b11101000000000000000000000000000 -
b110101 ,
0$
b111010 %
b111010 )
b111010 .
#605000
b1010111010000000 "
b1010111010000000 *
1$
#610000
b11011000000 +
b11101100000000000000000000000000 -
b110101 ,
0$
b111011 %
b111011 )
b111011 .
#615000
b1010111011000000 "
b1010111011000000 *
1$
#620000
b11100000000 +
b11110000000000000000000000000000 -
b110101 ,
0$
b111100 %
b111100 )
b111100 .
#625000
b1010111100000000 "
b1010111100000000 *
1$
#630000
b11101000000 +
b11110100000000000000000000000000 -
b110101 ,
0$
b111101 %
b111101 )
b111101 .
#635000
b1010111101000000 "
b1010111101000000 *
1$
#640000
b11110000000 +
b11111000000000000000000000000000 -
b110101 ,
0$
b111110 %
b111110 )
b111110 .
#645000
b1010111110000000 "
b1010111110000000 *
1$
#650000
b11111000000 +
b11111100000000000000000000000000 -
b110101 ,
0$
b111111 %
b111111 )
b111111 .
#655000
b1010111111000000 "
b1010111111000000 *
1$
#660000
b0 +
b10000000000000000000000000000000 -
b110110 ,
0$
b1000000 %
b1000000 )
b1000000 .
#665000
b1011000000000000 "
b1011000000000000 *
1$
#670000
b100000 +
b10000010000000000000000000000000 -
b110110 ,
0$
b1000001 %
b1000001 )
b1000001 .
#675000
b1011000000100000 "
b1011000000100000 *
1$
#680000
b1000000 +
b10000100000000000000000000000000 -
b110110 ,
0$
b1000010 %
b1000010 )
b1000010 .
#685000
b1011000001000000 "
b1011000001000000 *
1$
#690000
b1100000 +
b10000110000000000000000000000000 -
b110110 ,
0$
b1000011 %
b1000011 )
b1000011 .
#695000
b1011000001100000 "
b1011000001100000 *
1$
#700000
b10000000 +
b10001000000000000000000000000000 -
b110110 ,
0$
b1000100 %
b1000100 )
b1000100 .
#705000
b1011000010000000 "
b1011000010000000 *
1$
#710000
b10100000 +
b10001010000000000000000000000000 -
b110110 ,
0$
b1000101 %
b1000101 )
b1000101 .
#715000
b1011000010100000 "
b1011000010100000 *
1$
#720000
b11000000 +
b10001100000000000000000000000000 -
b110110 ,
0$
b1000110 %
b1000110 )
b1000110 .
#725000
b1011000011000000 "
b1011000011000000 *
1$
#730000
b11100000 +
b10001110000000000000000000000000 -
b110110 ,
0$
b1000111 %
b1000111 )
b1000111 .
#735000
b1011000011100000 "
b1011000011100000 *
1$
#740000
b100000000 +
b10010000000000000000000000000000 -
b110110 ,
0$
b1001000 %
b1001000 )
b1001000 .
#745000
b1011000100000000 "
b1011000100000000 *
1$
#750000
b100100000 +
b10010010000000000000000000000000 -
b110110 ,
0$
b1001001 %
b1001001 )
b1001001 .
#755000
b1011000100100000 "
b1011000100100000 *
1$
#760000
b101000000 +
b10010100000000000000000000000000 -
b110110 ,
0$
b1001010 %
b1001010 )
b1001010 .
#765000
b1011000101000000 "
b1011000101000000 *
1$
#770000
b101100000 +
b10010110000000000000000000000000 -
b110110 ,
0$
b1001011 %
b1001011 )
b1001011 .
#775000
b1011000101100000 "
b1011000101100000 *
1$
#780000
b110000000 +
b10011000000000000000000000000000 -
b110110 ,
0$
b1001100 %
b1001100 )
b1001100 .
#785000
b1011000110000000 "
b1011000110000000 *
1$
#790000
b110100000 +
b10011010000000000000000000000000 -
b110110 ,
0$
b1001101 %
b1001101 )
b1001101 .
#795000
b1011000110100000 "
b1011000110100000 *
1$
#800000
b111000000 +
b10011100000000000000000000000000 -
b110110 ,
0$
b1001110 %
b1001110 )
b1001110 .
#805000
b1011000111000000 "
b1011000111000000 *
1$
#810000
b111100000 +
b10011110000000000000000000000000 -
b110110 ,
0$
b1001111 %
b1001111 )
b1001111 .
#815000
b1011000111100000 "
b1011000111100000 *
1$
#820000
b1000000000 +
b10100000000000000000000000000000 -
b110110 ,
0$
b1010000 %
b1010000 )
b1010000 .
#825000
b1011001000000000 "
b1011001000000000 *
1$
#830000
b1000100000 +
b10100010000000000000000000000000 -
b110110 ,
0$
b1010001 %
b1010001 )
b1010001 .
#835000
b1011001000100000 "
b1011001000100000 *
1$
#840000
b1001000000 +
b10100100000000000000000000000000 -
b110110 ,
0$
b1010010 %
b1010010 )
b1010010 .
#845000
b1011001001000000 "
b1011001001000000 *
1$
#850000
b1001100000 +
b10100110000000000000000000000000 -
b110110 ,
0$
b1010011 %
b1010011 )
b1010011 .
#855000
b1011001001100000 "
b1011001001100000 *
1$
#860000
b1010000000 +
b10101000000000000000000000000000 -
b110110 ,
0$
b1010100 %
b1010100 )
b1010100 .
#865000
b1011001010000000 "
b1011001010000000 *
1$
#870000
b1010100000 +
b10101010000000000000000000000000 -
b110110 ,
0$
b1010101 %
b1010101 )
b1010101 .
#875000
b1011001010100000 "
b1011001010100000 *
1$
#880000
b1011000000 +
b10101100000000000000000000000000 -
b110110 ,
0$
b1010110 %
b1010110 )
b1010110 .
#885000
b1011001011000000 "
b1011001011000000 *
1$
#890000
b1011100000 +
b10101110000000000000000000000000 -
b110110 ,
0$
b1010111 %
b1010111 )
b1010111 .
#895000
b1011001011100000 "
b1011001011100000 *
1$
#900000
b1100000000 +
b10110000000000000000000000000000 -
b110110 ,
0$
b1011000 %
b1011000 )
b1011000 .
#905000
b1011001100000000 "
b1011001100000000 *
1$
#910000
b1100100000 +
b10110010000000000000000000000000 -
b110110 ,
0$
b1011001 %
b1011001 )
b1011001 .
#915000
b1011001100100000 "
b1011001100100000 *
1$
#920000
b1101000000 +
b10110100000000000000000000000000 -
b110110 ,
0$
b1011010 %
b1011010 )
b1011010 .
#925000
b1011001101000000 "
b1011001101000000 *
1$
#930000
b1101100000 +
b10110110000000000000000000000000 -
b110110 ,
0$
b1011011 %
b1011011 )
b1011011 .
#935000
b1011001101100000 "
b1011001101100000 *
1$
#940000
b1110000000 +
b10111000000000000000000000000000 -
b110110 ,
0$
b1011100 %
b1011100 )
b1011100 .
#945000
b1011001110000000 "
b1011001110000000 *
1$
#950000
b1110100000 +
b10111010000000000000000000000000 -
b110110 ,
0$
b1011101 %
b1011101 )
b1011101 .
#955000
b1011001110100000 "
b1011001110100000 *
1$
#960000
b1111000000 +
b10111100000000000000000000000000 -
b110110 ,
0$
b1011110 %
b1011110 )
b1011110 .
#965000
b1011001111000000 "
b1011001111000000 *
1$
#970000
b1111100000 +
b10111110000000000000000000000000 -
b110110 ,
0$
b1011111 %
b1011111 )
b1011111 .
#975000
b1011001111100000 "
b1011001111100000 *
1$
#980000
b10000000000 +
b11000000000000000000000000000000 -
b110110 ,
0$
b1100000 %
b1100000 )
b1100000 .
#985000
b1011010000000000 "
b1011010000000000 *
1$
#990000
b10000100000 +
b11000010000000000000000000000000 -
b110110 ,
0$
b1100001 %
b1100001 )
b1100001 .
#995000
b1011010000100000 "
b1011010000100000 *
1$
#1000000
b10001000000 +
b11000100000000000000000000000000 -
b110110 ,
0$
b1100010 %
b1100010 )
b1100010 .
#1005000
b1011010001000000 "
b1011010001000000 *
1$
#1010000
b10001100000 +
b11000110000000000000000000000000 -
b110110 ,
0$
b1100011 %
b1100011 )
b1100011 .
#1015000
b1011010001100000 "
b1011010001100000 *
1$
#1020000
b10010000000 +
b11001000000000000000000000000000 -
b110110 ,
0$
b1100100 %
b1100100 )
b1100100 .
#1025000
b1011010010000000 "
b1011010010000000 *
1$
#1030000
b10010100000 +
b11001010000000000000000000000000 -
b110110 ,
0$
b1100101 %
b1100101 )
b1100101 .
#1035000
b1011010010100000 "
b1011010010100000 *
1$
#1040000
b10011000000 +
b11001100000000000000000000000000 -
b110110 ,
0$
b1100110 %
b1100110 )
b1100110 .
#1045000
b1011010011000000 "
b1011010011000000 *
1$
#1050000
b10011100000 +
b11001110000000000000000000000000 -
b110110 ,
0$
b1100111 %
b1100111 )
b1100111 .
#1055000
b1011010011100000 "
b1011010011100000 *
1$
#1060000
b10100000000 +
b11010000000000000000000000000000 -
b110110 ,
0$
b1101000 %
b1101000 )
b1101000 .
#1065000
b1011010100000000 "
b1011010100000000 *
1$
#1070000
b10100100000 +
b11010010000000000000000000000000 -
b110110 ,
0$
b1101001 %
b1101001 )
b1101001 .
#1075000
b1011010100100000 "
b1011010100100000 *
1$
#1080000
b10101000000 +
b11010100000000000000000000000000 -
b110110 ,
0$
b1101010 %
b1101010 )
b1101010 .
#1085000
b1011010101000000 "
b1011010101000000 *
1$
#1090000
b10101100000 +
b11010110000000000000000000000000 -
b110110 ,
0$
b1101011 %
b1101011 )
b1101011 .
#1095000
b1011010101100000 "
b1011010101100000 *
1$
#1100000
b10110000000 +
b11011000000000000000000000000000 -
b110110 ,
0$
b1101100 %
b1101100 )
b1101100 .
#1105000
b1011010110000000 "
b1011010110000000 *
1$
#1110000
b10110100000 +
b11011010000000000000000000000000 -
b110110 ,
0$
b1101101 %
b1101101 )
b1101101 .
#1115000
b1011010110100000 "
b1011010110100000 *
1$
#1120000
b10111000000 +
b11011100000000000000000000000000 -
b110110 ,
0$
b1101110 %
b1101110 )
b1101110 .
#1125000
b1011010111000000 "
b1011010111000000 *
1$
#1130000
b10111100000 +
b11011110000000000000000000000000 -
b110110 ,
0$
b1101111 %
b1101111 )
b1101111 .
#1135000
b1011010111100000 "
b1011010111100000 *
1$
#1140000
b11000000000 +
b11100000000000000000000000000000 -
b110110 ,
0$
b1110000 %
b1110000 )
b1110000 .
#1145000
b1011011000000000 "
b1011011000000000 *
1$
#1150000
b11000100000 +
b11100010000000000000000000000000 -
b110110 ,
0$
b1110001 %
b1110001 )
b1110001 .
#1155000
b1011011000100000 "
b1011011000100000 *
1$
#1160000
b11001000000 +
b11100100000000000000000000000000 -
b110110 ,
0$
b1110010 %
b1110010 )
b1110010 .
#1165000
b1011011001000000 "
b1011011001000000 *
1$
#1170000
b11001100000 +
b11100110000000000000000000000000 -
b110110 ,
0$
b1110011 %
b1110011 )
b1110011 .
#1175000
b1011011001100000 "
b1011011001100000 *
1$
#1180000
b11010000000 +
b11101000000000000000000000000000 -
b110110 ,
0$
b1110100 %
b1110100 )
b1110100 .
#1185000
b1011011010000000 "
b1011011010000000 *
1$
#1190000
b11010100000 +
b11101010000000000000000000000000 -
b110110 ,
0$
b1110101 %
b1110101 )
b1110101 .
#1195000
b1011011010100000 "
b1011011010100000 *
1$
#1200000
b11011000000 +
b11101100000000000000000000000000 -
b110110 ,
0$
b1110110 %
b1110110 )
b1110110 .
#1205000
b1011011011000000 "
b1011011011000000 *
1$
#1210000
b11011100000 +
b11101110000000000000000000000000 -
b110110 ,
0$
b1110111 %
b1110111 )
b1110111 .
#1215000
b1011011011100000 "
b1011011011100000 *
1$
#1220000
b11100000000 +
b11110000000000000000000000000000 -
b110110 ,
0$
b1111000 %
b1111000 )
b1111000 .
#1225000
b1011011100000000 "
b1011011100000000 *
1$
#1230000
b11100100000 +
b11110010000000000000000000000000 -
b110110 ,
0$
b1111001 %
b1111001 )
b1111001 .
#1235000
b1011011100100000 "
b1011011100100000 *
1$
#1240000
b11101000000 +
b11110100000000000000000000000000 -
b110110 ,
0$
b1111010 %
b1111010 )
b1111010 .
#1245000
b1011011101000000 "
b1011011101000000 *
1$
#1250000
b11101100000 +
b11110110000000000000000000000000 -
b110110 ,
0$
b1111011 %
b1111011 )
b1111011 .
#1255000
b1011011101100000 "
b1011011101100000 *
1$
#1260000
b11110000000 +
b11111000000000000000000000000000 -
b110110 ,
0$
b1111100 %
b1111100 )
b1111100 .
#1265000
b1011011110000000 "
b1011011110000000 *
1$
#1270000
b11110100000 +
b11111010000000000000000000000000 -
b110110 ,
0$
b1111101 %
b1111101 )
b1111101 .
#1275000
b1011011110100000 "
b1011011110100000 *
1$
#1280000
b11111000000 +
b11111100000000000000000000000000 -
b110110 ,
0$
b1111110 %
b1111110 )
b1111110 .
#1285000
b1011011111000000 "
b1011011111000000 *
1$
#1290000
b11111100000 +
b11111110000000000000000000000000 -
b110110 ,
0$
b1111111 %
b1111111 )
b1111111 .
#1295000
b1011011111100000 "
b1011011111100000 *
1$
#1300000
b0 +
b10000000000000000000000000000000 -
b110111 ,
0$
b10000000 %
b10000000 )
b10000000 .
#1305000
b1011100000000000 "
b1011100000000000 *
1$
#1310000
b10000 +
b10000001000000000000000000000000 -
b110111 ,
0$
b10000001 %
b10000001 )
b10000001 .
#1315000
b1011100000010000 "
b1011100000010000 *
1$
#1320000
b100000 +
b10000010000000000000000000000000 -
b110111 ,
0$
b10000010 %
b10000010 )
b10000010 .
#1325000
b1011100000100000 "
b1011100000100000 *
1$
#1330000
b110000 +
b10000011000000000000000000000000 -
b110111 ,
0$
b10000011 %
b10000011 )
b10000011 .
#1335000
b1011100000110000 "
b1011100000110000 *
1$
#1340000
b1000000 +
b10000100000000000000000000000000 -
b110111 ,
0$
b10000100 %
b10000100 )
b10000100 .
#1345000
b1011100001000000 "
b1011100001000000 *
1$
#1350000
b1010000 +
b10000101000000000000000000000000 -
b110111 ,
0$
b10000101 %
b10000101 )
b10000101 .
#1355000
b1011100001010000 "
b1011100001010000 *
1$
#1360000
b1100000 +
b10000110000000000000000000000000 -
b110111 ,
0$
b10000110 %
b10000110 )
b10000110 .
#1365000
b1011100001100000 "
b1011100001100000 *
1$
#1370000
b1110000 +
b10000111000000000000000000000000 -
b110111 ,
0$
b10000111 %
b10000111 )
b10000111 .
#1375000
b1011100001110000 "
b1011100001110000 *
1$
#1380000
b10000000 +
b10001000000000000000000000000000 -
b110111 ,
0$
b10001000 %
b10001000 )
b10001000 .
#1385000
b1011100010000000 "
b1011100010000000 *
1$
#1390000
b10010000 +
b10001001000000000000000000000000 -
b110111 ,
0$
b10001001 %
b10001001 )
b10001001 .
#1395000
b1011100010010000 "
b1011100010010000 *
1$
#1400000
b10100000 +
b10001010000000000000000000000000 -
b110111 ,
0$
b10001010 %
b10001010 )
b10001010 .
#1405000
b1011100010100000 "
b1011100010100000 *
1$
#1410000
b10110000 +
b10001011000000000000000000000000 -
b110111 ,
0$
b10001011 %
b10001011 )
b10001011 .
#1415000
b1011100010110000 "
b1011100010110000 *
1$
#1420000
b11000000 +
b10001100000000000000000000000000 -
b110111 ,
0$
b10001100 %
b10001100 )
b10001100 .
#1425000
b1011100011000000 "
b1011100011000000 *
1$
#1430000
b11010000 +
b10001101000000000000000000000000 -
b110111 ,
0$
b10001101 %
b10001101 )
b10001101 .
#1435000
b1011100011010000 "
b1011100011010000 *
1$
#1440000
b11100000 +
b10001110000000000000000000000000 -
b110111 ,
0$
b10001110 %
b10001110 )
b10001110 .
#1445000
b1011100011100000 "
b1011100011100000 *
1$
#1450000
b11110000 +
b10001111000000000000000000000000 -
b110111 ,
0$
b10001111 %
b10001111 )
b10001111 .
#1455000
b1011100011110000 "
b1011100011110000 *
1$
#1460000
b100000000 +
b10010000000000000000000000000000 -
b110111 ,
0$
b10010000 %
b10010000 )
b10010000 .
#1465000
b1011100100000000 "
b1011100100000000 *
1$
#1470000
b100010000 +
b10010001000000000000000000000000 -
b110111 ,
0$
b10010001 %
b10010001 )
b10010001 .
#1475000
b1011100100010000 "
b1011100100010000 *
1$
#1480000
b100100000 +
b10010010000000000000000000000000 -
b110111 ,
0$
b10010010 %
b10010010 )
b10010010 .
#1485000
b1011100100100000 "
b1011100100100000 *
1$
#1490000
b100110000 +
b10010011000000000000000000000000 -
b110111 ,
0$
b10010011 %
b10010011 )
b10010011 .
#1495000
b1011100100110000 "
b1011100100110000 *
1$
#1500000
b101000000 +
b10010100000000000000000000000000 -
b110111 ,
0$
b10010100 %
b10010100 )
b10010100 .
#1505000
b1011100101000000 "
b1011100101000000 *
1$
#1510000
b101010000 +
b10010101000000000000000000000000 -
b110111 ,
0$
b10010101 %
b10010101 )
b10010101 .
#1515000
b1011100101010000 "
b1011100101010000 *
1$
#1520000
b101100000 +
b10010110000000000000000000000000 -
b110111 ,
0$
b10010110 %
b10010110 )
b10010110 .
#1525000
b1011100101100000 "
b1011100101100000 *
1$
#1530000
b101110000 +
b10010111000000000000000000000000 -
b110111 ,
0$
b10010111 %
b10010111 )
b10010111 .
#1535000
b1011100101110000 "
b1011100101110000 *
1$
#1540000
b110000000 +
b10011000000000000000000000000000 -
b110111 ,
0$
b10011000 %
b10011000 )
b10011000 .
#1545000
b1011100110000000 "
b1011100110000000 *
1$
#1550000
b110010000 +
b10011001000000000000000000000000 -
b110111 ,
0$
b10011001 %
b10011001 )
b10011001 .
#1555000
b1011100110010000 "
b1011100110010000 *
1$
#1560000
b110100000 +
b10011010000000000000000000000000 -
b110111 ,
0$
b10011010 %
b10011010 )
b10011010 .
#1565000
b1011100110100000 "
b1011100110100000 *
1$
#1570000
b110110000 +
b10011011000000000000000000000000 -
b110111 ,
0$
b10011011 %
b10011011 )
b10011011 .
#1575000
b1011100110110000 "
b1011100110110000 *
1$
#1580000
b111000000 +
b10011100000000000000000000000000 -
b110111 ,
0$
b10011100 %
b10011100 )
b10011100 .
#1585000
b1011100111000000 "
b1011100111000000 *
1$
#1590000
b111010000 +
b10011101000000000000000000000000 -
b110111 ,
0$
b10011101 %
b10011101 )
b10011101 .
#1595000
b1011100111010000 "
b1011100111010000 *
1$
#1600000
b111100000 +
b10011110000000000000000000000000 -
b110111 ,
0$
b10011110 %
b10011110 )
b10011110 .
#1605000
b1011100111100000 "
b1011100111100000 *
1$
#1610000
b111110000 +
b10011111000000000000000000000000 -
b110111 ,
0$
b10011111 %
b10011111 )
b10011111 .
#1615000
b1011100111110000 "
b1011100111110000 *
1$
#1620000
b1000000000 +
b10100000000000000000000000000000 -
b110111 ,
0$
b10100000 %
b10100000 )
b10100000 .
#1625000
b1011101000000000 "
b1011101000000000 *
1$
#1630000
b1000010000 +
b10100001000000000000000000000000 -
b110111 ,
0$
b10100001 %
b10100001 )
b10100001 .
#1635000
b1011101000010000 "
b1011101000010000 *
1$
#1640000
b1000100000 +
b10100010000000000000000000000000 -
b110111 ,
0$
b10100010 %
b10100010 )
b10100010 .
#1645000
b1011101000100000 "
b1011101000100000 *
1$
#1650000
b1000110000 +
b10100011000000000000000000000000 -
b110111 ,
0$
b10100011 %
b10100011 )
b10100011 .
#1655000
b1011101000110000 "
b1011101000110000 *
1$
#1660000
b1001000000 +
b10100100000000000000000000000000 -
b110111 ,
0$
b10100100 %
b10100100 )
b10100100 .
#1665000
b1011101001000000 "
b1011101001000000 *
1$
#1670000
b1001010000 +
b10100101000000000000000000000000 -
b110111 ,
0$
b10100101 %
b10100101 )
b10100101 .
#1675000
b1011101001010000 "
b1011101001010000 *
1$
#1680000
b1001100000 +
b10100110000000000000000000000000 -
b110111 ,
0$
b10100110 %
b10100110 )
b10100110 .
#1685000
b1011101001100000 "
b1011101001100000 *
1$
#1690000
b1001110000 +
b10100111000000000000000000000000 -
b110111 ,
0$
b10100111 %
b10100111 )
b10100111 .
#1695000
b1011101001110000 "
b1011101001110000 *
1$
#1700000
b1010000000 +
b10101000000000000000000000000000 -
b110111 ,
0$
b10101000 %
b10101000 )
b10101000 .
#1705000
b1011101010000000 "
b1011101010000000 *
1$
#1710000
b1010010000 +
b10101001000000000000000000000000 -
b110111 ,
0$
b10101001 %
b10101001 )
b10101001 .
