mel_filterbank.vcd
$date
	Wed Nov 15 17:07:30 2023
$end
$version
	Icarus Verilog
$end
$timescale
	1ps
$end
$scope module mel_filterbank_tb $end
$var wire 32 ! filter0 [31:0] $end
$var wire 32 " filter1 [31:0] $end
$var wire 32 # filter12 [31:0] $end
$var wire 32 $ filter13 [31:0] $end
$var wire 32 % filter24 [31:0] $end
$var wire 32 & filter25 [31:0] $end
$var wire 1 ' power_ready_out $end
$var wire 1 ( filtered_valid_out $end
$var reg 1 ) clk_in $end
$var reg 1 * filtered_ready_in $end
$var reg 32 + power_data_in [31:0] $end
$var reg 1 , power_last_in $end
$var reg 1 - power_valid_in $end
$var reg 1 . rst_in $end
$scope module uut $end
$var wire 1 ) clk_in $end
$var wire 1 * filtered_ready_in $end
$var wire 32 / power_data_in [31:0] $end
$var wire 1 , power_last_in $end
$var wire 1 - power_valid_in $end
$var wire 1 . rst_in $end
$var wire 1 0 input_valid_buffer $end
$var wire 1 1 input_last_buffer $end
$var parameter 32 2 NUM_FILTERS $end
$var parameter 32 3 N_FFT $end
$var reg 1 ( filtered_valid_out $end
$var reg 32 4 its_joever [31:0] $end
$var reg 9 5 k_curr [8:0] $end
$var reg 1 ' power_ready_out $end
$scope module input_valid_buffer_pipeline $end
$var wire 1 ) clk_in $end
$var wire 1 . rst_in $end
$var wire 2 6 val_in [1:0] $end
$var wire 2 7 val_out [1:0] $end
$var parameter 32 8 DEPTH $end
$var parameter 32 9 WIDTH $end
$scope begin genblk1[0] $end
$var parameter 2 : i $end
$upscope $end
$scope begin genblk1[1] $end
$var parameter 2 ; i $end
$upscope $end
$upscope $end
$scope module triangular_filter_inst_0 $end
$var wire 1 ) clk_in $end
$var wire 9 < k_in [8:0] $end
$var wire 32 = power_in [31:0] $end
$var wire 1 . rst_in $end
$var reg 32 > filtered_out [31:0] $end
$var reg 22 ? power_buffer [21:0] $end
$var reg 11 @ scale_factor [10:0] $end
$upscope $end
$scope module triangular_filter_inst_1 $end
$var wire 1 ) clk_in $end
$var wire 9 A k_in [8:0] $end
$var wire 32 B power_in [31:0] $end
$var wire 1 . rst_in $end
$var reg 32 C filtered_out [31:0] $end
$var reg 22 D power_buffer [21:0] $end
$var reg 11 E scale_factor [10:0] $end
$upscope $end
$scope module triangular_filter_inst_10 $end
$var wire 1 ) clk_in $end
$var wire 9 F k_in [8:0] $end
$var wire 32 G power_in [31:0] $end
$var wire 1 . rst_in $end
$var reg 32 H filtered_out [31:0] $end
$var reg 22 I power_buffer [21:0] $end
$var reg 11 J scale_factor [10:0] $end
$upscope $end
$scope module triangular_filter_inst_11 $end
$var wire 1 ) clk_in $end
$var wire 9 K k_in [8:0] $end
$var wire 32 L power_in [31:0] $end
$var wire 1 . rst_in $end
$var reg 32 M filtered_out [31:0] $end
$var reg 22 N power_buffer [21:0] $end
$var reg 11 O scale_factor [10:0] $end
$upscope $end
$scope module triangular_filter_inst_12 $end
$var wire 1 ) clk_in $end
$var wire 9 P k_in [8:0] $end
$var wire 32 Q power_in [31:0] $end
$var wire 1 . rst_in $end
$var reg 32 R filtered_out [31:0] $end
$var reg 22 S power_buffer [21:0] $end
$var reg 11 T scale_factor [10:0] $end
$upscope $end
$scope module triangular_filter_inst_13 $end
$var wire 1 ) clk_in $end
$var wire 9 U k_in [8:0] $end
$var wire 32 V power_in [31:0] $end
$var wire 1 . rst_in $end
$var reg 32 W filtered_out [31:0] $end
$var reg 22 X power_buffer [21:0] $end
$var reg 11 Y scale_factor [10:0] $end
$upscope $end
$scope module triangular_filter_inst_14 $end
$var wire 1 ) clk_in $end
$var wire 9 Z k_in [8:0] $end
$var wire 32 [ power_in [31:0] $end
$var wire 1 . rst_in $end
$var reg 32 \ filtered_out [31:0] $end
$var reg 22 ] power_buffer [21:0] $end
$var reg 11 ^ scale_factor [10:0] $end
$upscope $end
$scope module triangular_filter_inst_15 $end
$var wire 1 ) clk_in $end
$var wire 9 _ k_in [8:0] $end
$var wire 32 ` power_in [31:0] $end
$var wire 1 . rst_in $end
$var reg 32 a filtered_out [31:0] $end
$var reg 22 b power_buffer [21:0] $end
$var reg 11 c scale_factor [10:0] $end
$upscope $end
$scope module triangular_filter_inst_16 $end
$var wire 1 ) clk_in $end
$var wire 9 d k_in [8:0] $end
$var wire 32 e power_in [31:0] $end
$var wire 1 . rst_in $end
$var reg 32 f filtered_out [31:0] $end
$var reg 22 g power_buffer [21:0] $end
$var reg 11 h scale_factor [10:0] $end
$upscope $end
$scope module triangular_filter_inst_17 $end
$var wire 1 ) clk_in $end
$var wire 9 i k_in [8:0] $end
$var wire 32 j power_in [31:0] $end
$var wire 1 . rst_in $end
$var reg 32 k filtered_out [31:0] $end
$var reg 22 l power_buffer [21:0] $end
$var reg 11 m scale_factor [10:0] $end
$upscope $end
$scope module triangular_filter_inst_18 $end
$var wire 1 ) clk_in $end
$var wire 9 n k_in [8:0] $end
$var wire 32 o power_in [31:0] $end
$var wire 1 . rst_in $end
$var reg 32 p filtered_out [31:0] $end
$var reg 22 q power_buffer [21:0] $end
$var reg 11 r scale_factor [10:0] $end
$upscope $end
$scope module triangular_filter_inst_19 $end
$var wire 1 ) clk_in $end
$var wire 9 s k_in [8:0] $end
$var wire 32 t power_in [31:0] $end
$var wire 1 . rst_in $end
$var reg 32 u filtered_out [31:0] $end
$var reg 22 v power_buffer [21:0] $end
$var reg 11 w scale_factor [10:0] $end
$upscope $end
$scope module triangular_filter_inst_2 $end
$var wire 1 ) clk_in $end
$var wire 9 x k_in [8:0] $end
$var wire 32 y power_in [31:0] $end
$var wire 1 . rst_in $end
$var reg 32 z filtered_out [31:0] $end
$var reg 22 { power_buffer [21:0] $end
$var reg 11 | scale_factor [10:0] $end
$upscope $end
$scope module triangular_filter_inst_20 $end
$var wire 1 ) clk_in $end
$var wire 9 } k_in [8:0] $end
$var wire 32 ~ power_in [31:0] $end
$var wire 1 . rst_in $end
$var reg 32 !" filtered_out [31:0] $end
$var reg 22 "" power_buffer [21:0] $end
$var reg 11 #" scale_factor [10:0] $end
$upscope $end
$scope module triangular_filter_inst_21 $end
$var wire 1 ) clk_in $end
$var wire 9 $" k_in [8:0] $end
$var wire 32 %" power_in [31:0] $end
$var wire 1 . rst_in $end
$var reg 32 &" filtered_out [31:0] $end
$var reg 22 '" power_buffer [21:0] $end
$var reg 11 (" scale_factor [10:0] $end
$upscope $end
$scope module triangular_filter_inst_22 $end
$var wire 1 ) clk_in $end
$var wire 9 )" k_in [8:0] $end
$var wire 32 *" power_in [31:0] $end
$var wire 1 . rst_in $end
$var reg 32 +" filtered_out [31:0] $end
$var reg 22 ," power_buffer [21:0] $end
$var reg 11 -" scale_factor [10:0] $end
$upscope $end
$scope module triangular_filter_inst_23 $end
$var wire 1 ) clk_in $end
$var wire 9 ." k_in [8:0] $end
$var wire 32 /" power_in [31:0] $end
$var wire 1 . rst_in $end
$var reg 32 0" filtered_out [31:0] $end
$var reg 22 1" power_buffer [21:0] $end
$var reg 11 2" scale_factor [10:0] $end
$upscope $end
$scope module triangular_filter_inst_24 $end
$var wire 1 ) clk_in $end
$var wire 9 3" k_in [8:0] $end
$var wire 32 4" power_in [31:0] $end
$var wire 1 . rst_in $end
$var reg 32 5" filtered_out [31:0] $end
$var reg 22 6" power_buffer [21:0] $end
$var reg 11 7" scale_factor [10:0] $end
$upscope $end
$scope module triangular_filter_inst_25 $end
$var wire 1 ) clk_in $end
$var wire 9 8" k_in [8:0] $end
$var wire 32 9" power_in [31:0] $end
$var wire 1 . rst_in $end
$var reg 32 :" filtered_out [31:0] $end
$var reg 22 ;" power_buffer [21:0] $end
$var reg 11 <" scale_factor [10:0] $end
$upscope $end
$scope module triangular_filter_inst_3 $end
$var wire 1 ) clk_in $end
$var wire 9 =" k_in [8:0] $end
$var wire 32 >" power_in [31:0] $end
$var wire 1 . rst_in $end
$var reg 32 ?" filtered_out [31:0] $end
$var reg 22 @" power_buffer [21:0] $end
$var reg 11 A" scale_factor [10:0] $end
$upscope $end
$scope module triangular_filter_inst_4 $end
$var wire 1 ) clk_in $end
$var wire 9 B" k_in [8:0] $end
$var wire 32 C" power_in [31:0] $end
$var wire 1 . rst_in $end
$var reg 32 D" filtered_out [31:0] $end
$var reg 22 E" power_buffer [21:0] $end
$var reg 11 F" scale_factor [10:0] $end
$upscope $end
$scope module triangular_filter_inst_5 $end
$var wire 1 ) clk_in $end
$var wire 9 G" k_in [8:0] $end
$var wire 32 H" power_in [31:0] $end
$var wire 1 . rst_in $end
$var reg 32 I" filtered_out [31:0] $end
$var reg 22 J" power_buffer [21:0] $end
$var reg 11 K" scale_factor [10:0] $end
$upscope $end
$scope module triangular_filter_inst_6 $end
$var wire 1 ) clk_in $end
$var wire 9 L" k_in [8:0] $end
$var wire 32 M" power_in [31:0] $end
$var wire 1 . rst_in $end
$var reg 32 N" filtered_out [31:0] $end
$var reg 22 O" power_buffer [21:0] $end
$var reg 11 P" scale_factor [10:0] $end
$upscope $end
$scope module triangular_filter_inst_7 $end
$var wire 1 ) clk_in $end
$var wire 9 Q" k_in [8:0] $end
$var wire 32 R" power_in [31:0] $end
$var wire 1 . rst_in $end
$var reg 32 S" filtered_out [31:0] $end
$var reg 22 T" power_buffer [21:0] $end
$var reg 11 U" scale_factor [10:0] $end
$upscope $end
$scope module triangular_filter_inst_8 $end
$var wire 1 ) clk_in $end
$var wire 9 V" k_in [8:0] $end
$var wire 32 W" power_in [31:0] $end
$var wire 1 . rst_in $end
$var reg 32 X" filtered_out [31:0] $end
$var reg 22 Y" power_buffer [21:0] $end
$var reg 11 Z" scale_factor [10:0] $end
$upscope $end
$scope module triangular_filter_inst_9 $end
$var wire 1 ) clk_in $end
$var wire 9 [" k_in [8:0] $end
$var wire 32 \" power_in [31:0] $end
$var wire 1 . rst_in $end
$var reg 32 ]" filtered_out [31:0] $end
$var reg 22 ^" power_buffer [21:0] $end
$var reg 11 _" scale_factor [10:0] $end
$upscope $end
$scope begin $ivl_for_loop1 $end
$var integer 32 `" i [31:0] $end
$upscope $end
$scope begin $ivl_for_loop2 $end
$var integer 32 a" i [31:0] $end
$upscope $end
$upscope $end
$scope begin $ivl_for_loop0 $end
$var integer 32 b" i [31:0] $end
$upscope $end
$upscope $end
$enddefinitions $end
$comment Show the parameter values. $end
$dumpall
b1 ;
b0 :
b10 9
b10 8
b1000000000 3
b11010 2
$end
#0
$dumpvars
b0 b"
b0 a"
b0 `"
bx _"
bx ^"
bx ]"
b0 \"
bx ["
bx Z"
bx Y"
bx X"
b0 W"
bx V"
bx U"
bx T"
bx S"
b0 R"
bx Q"
bx P"
bx O"
bx N"
b0 M"
bx L"
bx K"
bx J"
bx I"
b0 H"
bx G"
bx F"
bx E"
bx D"
b0 C"
bx B"
bx A"
bx @"
bx ?"
b0 >"
bx ="
bx <"
bx ;"
bx :"
b0 9"
bx 8"
bx 7"
bx 6"
bx 5"
b0 4"
bx 3"
bx 2"
bx 1"
bx 0"
b0 /"
bx ."
bx -"
bx ,"
bx +"
b0 *"
bx )"
bx ("
bx '"
bx &"
b0 %"
bx $"
bx #"
bx ""
bx !"
b0 ~
bx }
bx |
bx {
bx z
b0 y
bx x
bx w
bx v
bx u
b0 t
bx s
bx r
bx q
bx p
b0 o
bx n
bx m
bx l
bx k
b0 j
bx i
bx h
bx g
bx f
b0 e
bx d
bx c
bx b
bx a
b0 `
bx _
bx ^
bx ]
bx \
b0 [
bx Z
bx Y
bx X
bx W
b0 V
bx U
bx T
bx S
bx R
b0 Q
bx P
bx O
bx N
bx M
b0 L
bx K
bx J
bx I
bx H
b0 G
bx F
bx E
bx D
bx C
b0 B
bx A
bx @
bx ?
bx >
b0 =
bx <
bx 7
b0 6
bx 5
bx 4
x1
x0
b0 /
0.
0-
0,
b0 +
0*
0)
x(
x'
bx &
bx %
bx $
bx #
bx "
bx !
$end
#5000
b0 @
b0 ?
b0 E
b0 D
b0 |
b0 {
b0 A"
b0 @"
b0 F"
b0 E"
b0 K"
b0 J"
b0 P"
b0 O"
b0 U"
b0 T"
b0 Z"
b0 Y"
b0 _"
b0 ^"
b0 J
b0 I
b0 O
b0 N
b0 T
b0 S
b0 Y
b0 X
b0 ^
b0 ]
b0 c
b0 b
b0 h
b0 g
b0 m
b0 l
b0 r
b0 q
b0 w
b0 v
b0 #"
b0 ""
b0 ("
b0 '"
b0 -"
b0 ,"
b0 2"
b0 1"
b0 7"
b0 6"
b0 <"
b0 ;"
1)
#10000
0)
1.
#15000
00
01
1'
b0 4
0(
b0 5
b0 <
b0 A
b0 F
b0 K
b0 P
b0 U
b0 Z
b0 _
b0 d
b0 i
b0 n
b0 s
b0 x
b0 }
b0 $"
b0 )"
b0 ."
b0 3"
b0 8"
b0 ="
b0 B"
b0 G"
b0 L"
b0 Q"
b0 V"
b0 ["
b0 :"
b0 5"
b0 0"
b0 +"
b0 &"
b0 !"
b0 u
b0 p
b0 k
b0 f
b0 a
b0 \
b0 W
b0 R
b0 M
b0 H
b0 ]"
b0 X"
b0 S"
b0 N"
b0 I"
b0 D"
b0 ?"
b0 z
b0 C
b0 >
b0 7
b11010 `"
1)
#20000
0)
0.
#25000
1)
#30000
0)
b10 6
1-
b1011111011101111 +
b1011111011101111 /
b1011111011101111 =
b1011111011101111 B
b1011111011101111 G
b1011111011101111 L
b1011111011101111 Q
b1011111011101111 V
b1011111011101111 [
b1011111011101111 `
b1011111011101111 e
b1011111011101111 j
b1011111011101111 o
b1011111011101111 t
b1011111011101111 y
b1011111011101111 ~
b1011111011101111 %"
b1011111011101111 *"
b1011111011101111 /"
b1011111011101111 4"
b1011111011101111 9"
b1011111011101111 >"
b1011111011101111 C"
b1011111011101111 H"
b1011111011101111 M"
b1011111011101111 R"
b1011111011101111 W"
b1011111011101111 \"
#35000
b1 5
b1 <
b1 A
b1 F
b1 K
b1 P
b1 U
b1 Z
b1 _
b1 d
b1 i
b1 n
b1 s
b1 x
b1 }
b1 $"
b1 )"
b1 ."
b1 3"
b1 8"
b1 ="
b1 B"
b1 G"
b1 L"
b1 Q"
b1 V"
b1 ["
b101111 ;"
b101111 6"
b101111 1"
b101111 ,"
b101111 '"
b101111 ""
b101111 v
b101111 q
b101111 l
b101111 g
b101111 b
b101111 ]
b101111 X
b101111 S
b101111 N
b101111 I
b101111 ^"
b101111 Y"
b101111 T"
b101111 O"
b101111 J"
b101111 E"
b101111 @"
b101111 {
b101111 D
b101111 ?
1)
#40000
0)
#45000
10
b10 7
b10 5
b10 <
b10 A
b10 F
b10 K
b10 P
b10 U
b10 Z
b10 _
b10 d
b10 i
b10 n
b10 s
b10 x
b10 }
b10 $"
b10 )"
b10 ."
b10 3"
b10 8"
b10 ="
b10 B"
b10 G"
b10 L"
b10 Q"
b10 V"
b10 ["
1)
#50000
0)
#55000
b11 5
b11 <
b11 A
b11 F
b11 K
b11 P
b11 U
b11 Z
b11 _
b11 d
b11 i
b11 n
b11 s
b11 x
b11 }
b11 $"
b11 )"
b11 ."
b11 3"
b11 8"
b11 ="
b11 B"
b11 G"
b11 L"
b11 Q"
b11 V"
b11 ["
b11010 a"
1)
#60000
0)
#65000
b100 5
b100 <
b100 A
b100 F
b100 K
b100 P
b100 U
b100 Z
b100 _
b100 d
b100 i
b100 n
b100 s
b100 x
b100 }
b100 $"
b100 )"
b100 ."
b100 3"
b100 8"
b100 ="
b100 B"
b100 G"
b100 L"
b100 Q"
b100 V"
b100 ["
b100000000 @
b11010 a"
1)
#70000
0)
#75000
b101 5
b101 <
b101 A
b101 F
b101 K
b101 P
b101 U
b101 Z
b101 _
b101 d
b101 i
b101 n
b101 s
b101 x
b101 }
b101 $"
b101 )"
b101 ."
b101 3"
b101 8"
b101 ="
b101 B"
b101 G"
b101 L"
b101 Q"
b101 V"
b101 ["
b10111100000000 >
b1000000000 @
b11010 a"
1)
#80000
0)
#85000
b110 5
b110 <
b110 A
b110 F
b110 K
b110 P
b110 U
b110 Z
b110 _
b110 d
b110 i
b110 n
b110 s
b110 x
b110 }
b110 $"
b110 )"
b110 ."
b110 3"
b110 8"
b110 ="
b110 B"
b110 G"
b110 L"
b110 Q"
b110 V"
b110 ["
b101111000000000 >
b1100000000 @
b11010 a"
1)
#90000
0)
#95000
b111 5
b111 <
b111 A
b111 F
b111 K
b111 P
b111 U
b111 Z
b111 _
b111 d
b111 i
b111 n
b111 s
b111 x
b111 }
b111 $"
b111 )"
b111 ."
b111 3"
b111 8"
b111 ="
b111 B"
b111 G"
b111 L"
b111 Q"
b111 V"
b111 ["
b1000110100000000 >
b10000000000 @
b11010 a"
1)
#100000
0)
#105000
b1000 5
b1000 <
b1000 A
b1000 F
b1000 K
b1000 P
b1000 U
b1000 Z
b1000 _
b1000 d
b1000 i
b1000 n
b1000 s
b1000 x
b1000 }
b1000 $"
b1000 )"
b1000 ."
b1000 3"
b1000 8"
b1000 ="
b1000 B"
b1000 G"
b1000 L"
b1000 Q"
b1000 V"
b1000 ["
b1011110000000000 >
b1100000000 @
b100000000 E
b11010 a"
1)
#110000
0)
#115000
b1001 5
b1001 <
b1001 A
b1001 F
b1001 K
b1001 P
b1001 U
b1001 Z
b1001 _
b1001 d
b1001 i
b1001 n
b1001 s
b1001 x
b1001 }
b1001 $"
b1001 )"
b1001 ."
b1001 3"
b1001 8"
b1001 ="
b1001 B"
b1001 G"
b1001 L"
b1001 Q"
b1001 V"
b1001 ["
b10111100000000 C
b1000000000 E
b1000110100000000 >
b1000000000 @
b11010 a"
1)
#120000
0)
#125000
b1010 5
b1010 <
b1010 A
b1010 F
b1010 K
b1010 P
b1010 U
b1010 Z
b1010 _
b1010 d
b1010 i
b1010 n
b1010 s
b1010 x
b1010 }
b1010 $"
b1010 )"
b1010 ."
b1010 3"
b1010 8"
b1010 ="
b1010 B"
b1010 G"
b1010 L"
b1010 Q"
b1010 V"
b1010 ["
b101111000000000 >
b100000000 @
b101111000000000 C
b1100000000 E
b11010 a"
1)
#130000
0)
#135000
b1011 5
b1011 <
b1011 A
b1011 F
b1011 K
b1011 P
b1011 U
b1011 Z
b1011 _
b1011 d
b1011 i
b1011 n
b1011 s
b1011 x
b1011 }
b1011 $"
b1011 )"
b1011 ."
b1011 3"
b1011 8"
b1011 ="
b1011 B"
b1011 G"
b1011 L"
b1011 Q"
b1011 V"
b1011 ["
b1000110100000000 C
b10000000000 E
b10111100000000 >
b0 @
b11010 a"
1)
#140000
0)
#145000
b1100 5
b1100 <
b1100 A
b1100 F
b1100 K
b1100 P
b1100 U
b1100 Z
b1100 _
b1100 d
b1100 i
b1100 n
b1100 s
b1100 x
b1100 }
b1100 $"
b1100 )"
b1100 ."
b1100 3"
b1100 8"
b1100 ="
b1100 B"
b1100 G"
b1100 L"
b1100 Q"
b1100 V"
b1100 ["
b0 >
b1011110000000000 C
b1100000000 E
b100000000 |
b11010 a"
1)
#150000
0)
#155000
b1101 5
b1101 <
b1101 A
b1101 F
b1101 K
b1101 P
b1101 U
b1101 Z
b1101 _
b1101 d
b1101 i
b1101 n
b1101 s
b1101 x
b1101 }
b1101 $"
b1101 )"
b1101 ."
b1101 3"
b1101 8"
b1101 ="
b1101 B"
b1101 G"
b1101 L"
b1101 Q"
b1101 V"
b1101 ["
b10111100000000 z
b1000000000 |
b1000110100000000 C
b1000000000 E
b11010 a"
1)
#160000
0)
#165000
b1110 5
b1110 <
b1110 A
b1110 F
b1110 K
b1110 P
b1110 U
b1110 Z
b1110 _
b1110 d
b1110 i
b1110 n
b1110 s
b1110 x
b1110 }
b1110 $"
b1110 )"
b1110 ."
b1110 3"
b1110 8"
b1110 ="
b1110 B"
b1110 G"
b1110 L"
b1110 Q"
b1110 V"
b1110 ["
b101111000000000 C
b100000000 E
b101111000000000 z
b1100000000 |
b11010 a"
1)
#170000
0)
#175000
b1111 5
b1111 <
b1111 A
b1111 F
b1111 K
b1111 P
b1111 U
b1111 Z
b1111 _
b1111 d
b1111 i
b1111 n
b1111 s
b1111 x
b1111 }
b1111 $"
b1111 )"
b1111 ."
b1111 3"
b1111 8"
b1111 ="
b1111 B"
b1111 G"
b1111 L"
b1111 Q"
b1111 V"
b1111 ["
b1000110100000000 z
b10000000000 |
b10111100000000 C
b0 E
b11010 a"
1)
#180000
0)
#185000
b10000 5
b10000 <
b10000 A
b10000 F
b10000 K
b10000 P
b10000 U
b10000 Z
b10000 _
b10000 d
b10000 i
b10000 n
b10000 s
b10000 x
b10000 }
b10000 $"
b10000 )"
b10000 ."
b10000 3"
b10000 8"
b10000 ="
b10000 B"
b10000 G"
b10000 L"
b10000 Q"
b10000 V"
b10000 ["
b0 C
b1011110000000000 z
b1100110011 |
b11001101 A"
b11010 a"
1)
#190000
0)
#195000
b10001 5
b10001 <
b10001 A
b10001 F
b10001 K
b10001 P
b10001 U
b10001 Z
b10001 _
b10001 d
b10001 i
b10001 n
b10001 s
b10001 x
b10001 }
b10001 $"
b10001 )"
b10001 ."
b10001 3"
b10001 8"
b10001 ="
b10001 B"
b10001 G"
b10001 L"
b10001 Q"
b10001 V"
b10001 ["
b10010110100011 ?"
b110011010 A"
b1001011001011101 z
b1001100110 |
b11010 a"
1)
#200000
0)
#205000
b10010 5
b10010 <
b10010 A
b10010 F
b10010 K
b10010 P
b10010 U
b10010 Z
b10010 _
b10010 d
b10010 i
b10010 n
b10010 s
b10010 x
b10010 }
b10010 $"
b10010 )"
b10010 ."
b10010 3"
b10010 8"
b10010 ="
b10010 B"
b10010 G"
b10010 L"
b10010 Q"
b10010 V"
b10010 ["
b111000010111010 z
b110011010 |
b100101101000110 ?"
b1001100110 A"
b11010 a"
1)
#210000
0)
#215000
b10011 5
b10011 <
b10011 A
b10011 F
b10011 K
b10011 P
b10011 U
b10011 Z
b10011 _
b10011 d
b10011 i
b10011 n
b10011 s
b10011 x
b10011 }
b10011 $"
b10011 )"
b10011 ."
b10011 3"
b10011 8"
b10011 ="
b10011 B"
b10011 G"
b10011 L"
b10011 Q"
b10011 V"
b10011 ["
b111000010111010 ?"
b1100110011 A"
b100101101000110 z
b11001101 |
b11010 a"
1)
#220000
0)
#225000
b10100 5
b10100 <
b10100 A
b10100 F
b10100 K
b10100 P
b10100 U
b10100 Z
b10100 _
b10100 d
b10100 i
b10100 n
b10100 s
b10100 x
b10100 }
b10100 $"
b10100 )"
b10100 ."
b10100 3"
b10100 8"
b10100 ="
b10100 B"
b10100 G"
b10100 L"
b10100 Q"
b10100 V"
b10100 ["
b10010110100011 z
b0 |
b1001011001011101 ?"
b10000000000 A"
b11010 a"
1)
#230000
0)
#235000
b10101 5
b10101 <
b10101 A
b10101 F
b10101 K
b10101 P
b10101 U
b10101 Z
b10101 _
b10101 d
b10101 i
b10101 n
b10101 s
b10101 x
b10101 }
b10101 $"
b10101 )"
b10101 ."
b10101 3"
b10101 8"
b10101 ="
b10101 B"
b10101 G"
b10101 L"
b10101 Q"
b10101 V"
b10101 ["
b11001101 F"
b1011110000000000 ?"
b1100110011 A"
b0 z
b11010 a"
1)
#240000
0)
#245000
b10110 5
b10110 <
b10110 A
b10110 F
b10110 K
b10110 P
b10110 U
b10110 Z
b10110 _
b10110 d
b10110 i
b10110 n
b10110 s
b10110 x
b10110 }
b10110 $"
b10110 )"
b10110 ."
b10110 3"
b10110 8"
b10110 ="
b10110 B"
b10110 G"
b10110 L"
b10110 Q"
b10110 V"
b10110 ["
b1001011001011101 ?"
b1001100110 A"
b10010110100011 D"
b110011010 F"
b11010 a"
1)
#250000
0)
#255000
b10111 5
b10111 <
b10111 A
b10111 F
b10111 K
b10111 P
b10111 U
b10111 Z
b10111 _
b10111 d
b10111 i
b10111 n
b10111 s
b10111 x
b10111 }
b10111 $"
b10111 )"
b10111 ."
b10111 3"
b10111 8"
b10111 ="
b10111 B"
b10111 G"
b10111 L"
b10111 Q"
b10111 V"
b10111 ["
b100101101000110 D"
b1001100110 F"
b111000010111010 ?"
b110011010 A"
b11010 a"
1)
#260000
0)
#265000
b11000 5
b11000 <
b11000 A
b11000 F
b11000 K
b11000 P
b11000 U
b11000 Z
b11000 _
b11000 d
b11000 i
b11000 n
b11000 s
b11000 x
b11000 }
b11000 $"
b11000 )"
b11000 ."
b11000 3"
b11000 8"
b11000 ="
b11000 B"
b11000 G"
b11000 L"
b11000 Q"
b11000 V"
b11000 ["
b100101101000110 ?"
b11001101 A"
b111000010111010 D"
b1100110011 F"
b11010 a"
1)
#270000
0)
#275000
b11001 5
b11001 <
b11001 A
b11001 F
b11001 K
b11001 P
b11001 U
b11001 Z
b11001 _
b11001 d
b11001 i
b11001 n
b11001 s
b11001 x
b11001 }
b11001 $"
b11001 )"
b11001 ."
b11001 3"
b11001 8"
b11001 ="
b11001 B"
b11001 G"
b11001 L"
b11001 Q"
b11001 V"
b11001 ["
b1001011001011101 D"
b10000000000 F"
b10010110100011 ?"
b0 A"
b11010 a"
1)
#280000
0)
#285000
b11010 5
b11010 <
b11010 A
b11010 F
b11010 K
b11010 P
b11010 U
b11010 Z
b11010 _
b11010 d
b11010 i
b11010 n
b11010 s
b11010 x
b11010 }
b11010 $"
b11010 )"
b11010 ."
b11010 3"
b11010 8"
b11010 ="
b11010 B"
b11010 G"
b11010 L"
b11010 Q"
b11010 V"
b11010 ["
b0 ?"
b1011110000000000 D"
b1100110011 F"
b11001101 K"
b11010 a"
1)
#290000
0)
#295000
b11011 5
b11011 <
b11011 A
b11011 F
b11011 K
b11011 P
b11011 U
b11011 Z
b11011 _
b11011 d
b11011 i
b11011 n
b11011 s
b11011 x
b11011 }
b11011 $"
b11011 )"
b11011 ."
b11011 3"
b11011 8"
b11011 ="
b11011 B"
b11011 G"
b11011 L"
b11011 Q"
b11011 V"
b11011 ["
b10010110100011 I"
b110011010 K"
b1001011001011101 D"
b1001100110 F"
b11010 a"
1)
#300000
0)
#305000
b11100 5
b11100 <
b11100 A
b11100 F
b11100 K
b11100 P
b11100 U
b11100 Z
b11100 _
b11100 d
b11100 i
b11100 n
b11100 s
b11100 x
b11100 }
b11100 $"
b11100 )"
b11100 ."
b11100 3"
b11100 8"
b11100 ="
b11100 B"
b11100 G"
b11100 L"
b11100 Q"
b11100 V"
b11100 ["
b111000010111010 D"
b110011010 F"
b100101101000110 I"
b1001100110 K"
b11010 a"
1)
#310000
0)
#315000
b11101 5
b11101 <
b11101 A
b11101 F
b11101 K
b11101 P
b11101 U
b11101 Z
b11101 _
b11101 d
b11101 i
b11101 n
b11101 s
b11101 x
b11101 }
b11101 $"
b11101 )"
b11101 ."
b11101 3"
b11101 8"
b11101 ="
b11101 B"
b11101 G"
b11101 L"
b11101 Q"
b11101 V"
b11101 ["
b111000010111010 I"
b1100110011 K"
b100101101000110 D"
b11001101 F"
b11010 a"
1)
#320000
0)
#325000
b11110 5
b11110 <
b11110 A
b11110 F
b11110 K
b11110 P
b11110 U
b11110 Z
b11110 _
b11110 d
b11110 i
b11110 n
b11110 s
b11110 x
b11110 }
b11110 $"
b11110 )"
b11110 ."
b11110 3"
b11110 8"
b11110 ="
b11110 B"
b11110 G"
b11110 L"
b11110 Q"
b11110 V"
b11110 ["
b10010110100011 D"
b0 F"
b1001011001011101 I"
b10000000000 K"
b11010 a"
1)
#330000
0)
#335000
b11111 5
b11111 <
b11111 A
b11111 F
b11111 K
b11111 P
b11111 U
b11111 Z
b11111 _
b11111 d
b11111 i
b11111 n
b11111 s
b11111 x
b11111 }
b11111 $"
b11111 )"
b11111 ."
b11111 3"
b11111 8"
b11111 ="
b11111 B"
b11111 G"
b11111 L"
b11111 Q"
b11111 V"
b11111 ["
b11001101 P"
b1011110000000000 I"
b1100110011 K"
b0 D"
b11010 a"
1)
#340000
0)
#345000
b100000 5
b100000 <
b100000 A
b100000 F
b100000 K
b100000 P
b100000 U
b100000 Z
b100000 _
b100000 d
b100000 i
b100000 n
b100000 s
b100000 x
b100000 }
b100000 $"
b100000 )"
b100000 ."
b100000 3"
b100000 8"
b100000 ="
b100000 B"
b100000 G"
b100000 L"
b100000 Q"
b100000 V"
b100000 ["
b1001011001011101 I"
b1001100110 K"
b10010110100011 N"
b110011010 P"
b11010 a"
1)
#350000
0)
#355000
b100001 5
b100001 <
b100001 A
b100001 F
b100001 K
b100001 P
b100001 U
b100001 Z
b100001 _
b100001 d
b100001 i
b100001 n
b100001 s
b100001 x
b100001 }
b100001 $"
b100001 )"
b100001 ."
b100001 3"
b100001 8"
b100001 ="
b100001 B"
b100001 G"
b100001 L"
b100001 Q"
b100001 V"
b100001 ["
b100101101000110 N"
b1001100110 P"
b111000010111010 I"
b110011010 K"
b11010 a"
1)
#360000
0)
#365000
b100010 5
b100010 <
b100010 A
b100010 F
b100010 K
b100010 P
b100010 U
b100010 Z
b100010 _
b100010 d
b100010 i
b100010 n
b100010 s
b100010 x
b100010 }
b100010 $"
b100010 )"
b100010 ."
b100010 3"
b100010 8"
b100010 ="
b100010 B"
b100010 G"
b100010 L"
b100010 Q"
b100010 V"
b100010 ["
b100101101000110 I"
b11001101 K"
b111000010111010 N"
b1100110011 P"
b11010 a"
1)
#370000
0)
#375000
b100011 5
b100011 <
b100011 A
b100011 F
b100011 K
b100011 P
b100011 U
b100011 Z
b100011 _
b100011 d
b100011 i
b100011 n
b100011 s
b100011 x
b100011 }
b100011 $"
b100011 )"
b100011 ."
b100011 3"
b100011 8"
b100011 ="
b100011 B"
b100011 G"
b100011 L"
b100011 Q"
b100011 V"
b100011 ["
b1001011001011101 N"
b10000000000 P"
b10010110100011 I"
b0 K"
b11010 a"
1)
#380000
0)
