power_spectrum.vcd
$date
	Sat Nov  4 15:21:33 2023
$end
$version
	Icarus Verilog
$end
$timescale
	1ps
$end
$scope module power_spectrum_tb $end
$var wire 1 ! power_valid_out $end
$var wire 32 " power_out [31:0] $end
$var wire 1 # fft_ready_out $end
$var reg 1 $ clk_in $end
$var reg 1 % fft_valid_in $end
$var reg 16 & imag_in [15:0] $end
$var reg 1 ' power_ready_in $end
$var reg 16 ( real_in [15:0] $end
$var reg 1 ) rst_in $end
$scope module uut $end
$var wire 1 $ clk_in $end
$var wire 32 * fft_data_in [31:0] $end
$var wire 1 % fft_valid_in $end
$var wire 1 ' power_ready_in $end
$var wire 1 ) rst_in $end
$var wire 16 + real_in [15:0] $end
$var wire 16 , imag_in [15:0] $end
$var reg 1 # fft_ready_out $end
$var reg 32 - imag_square [31:0] $end
$var reg 32 . power_data_out [31:0] $end
$var reg 1 ! power_valid_out $end
$var reg 32 / real_square [31:0] $end
$var reg 1 0 square_valid $end
$upscope $end
$scope begin $ivl_for_loop0 $end
$var integer 32 1 i [31:0] $end
$upscope $end
$scope begin $ivl_for_loop1 $end
$var integer 32 2 i [31:0] $end
$upscope $end
$scope begin $ivl_for_loop2 $end
$var integer 32 3 i [31:0] $end
$upscope $end
$upscope $end
$enddefinitions $end
$comment Show the parameter values. $end
$dumpall
$end
#0
$dumpvars
b0 3
b0 2
b0 1
x0
bx /
bx .
bx -
b0 ,
b0 +
b0 *
0)
b0 (
0'
b0 &
0%
0$
x#
bx "
x!
$end
#5000
0#
1$
#10000
0$
1)
#15000
0!
00
1$
#20000
0$
0)
#25000
1$
#30000
b1100000000000000 +
0$
b11000000000000000000000000000000 *
b1100000000000000 (
b11111111111111111100000000000000 1
1'
1%
#35000
10
b0 -
b10000000000000000000000000000 /
1#
1$
#40000
b1100000001000000 +
0$
b11000000010000000000000000000000 *
b1100000001000000 (
b11111111111111111100000001000000 1
#45000
1!
b10000000000000000000000000000 "
b10000000000000000000000000000 .
b1111111000000001000000000000 /
1$
#50000
b1100000010000000 +
0$
b11000000100000000000000000000000 *
b1100000010000000 (
b11111111111111111100000010000000 1
#55000
b1111111000000001000000000000 "
b1111111000000001000000000000 .
b1111110000000100000000000000 /
1$
#60000
b1100000011000000 +
0$
b11000000110000000000000000000000 *
b1100000011000000 (
b11111111111111111100000011000000 1
#65000
b1111110000000100000000000000 "
b1111110000000100000000000000 .
b1111101000001001000000000000 /
1$
#70000
b1100000100000000 +
0$
b11000001000000000000000000000000 *
b1100000100000000 (
b11111111111111111100000100000000 1
#75000
b1111101000001001000000000000 "
b1111101000001001000000000000 .
b1111100000010000000000000000 /
1$
#80000
b1100000101000000 +
0$
b11000001010000000000000000000000 *
b1100000101000000 (
b11111111111111111100000101000000 1
#85000
b1111100000010000000000000000 "
b1111100000010000000000000000 .
b1111011000011001000000000000 /
1$
#90000
b1100000110000000 +
0$
b11000001100000000000000000000000 *
b1100000110000000 (
b11111111111111111100000110000000 1
#95000
b1111011000011001000000000000 "
b1111011000011001000000000000 .
b1111010000100100000000000000 /
1$
#100000
b1100000111000000 +
0$
b11000001110000000000000000000000 *
b1100000111000000 (
b11111111111111111100000111000000 1
#105000
b1111010000100100000000000000 "
b1111010000100100000000000000 .
b1111001000110001000000000000 /
1$
#110000
b1100001000000000 +
0$
b11000010000000000000000000000000 *
b1100001000000000 (
b11111111111111111100001000000000 1
#115000
b1111001000110001000000000000 "
b1111001000110001000000000000 .
b1111000001000000000000000000 /
1$
#120000
b1100001001000000 +
0$
b11000010010000000000000000000000 *
b1100001001000000 (
b11111111111111111100001001000000 1
#125000
b1111000001000000000000000000 "
b1111000001000000000000000000 .
b1110111001010001000000000000 /
1$
#130000
b1100001010000000 +
0$
b11000010100000000000000000000000 *
b1100001010000000 (
b11111111111111111100001010000000 1
#135000
b1110111001010001000000000000 "
b1110111001010001000000000000 .
b1110110001100100000000000000 /
1$
#140000
b1100001011000000 +
0$
b11000010110000000000000000000000 *
b1100001011000000 (
b11111111111111111100001011000000 1
#145000
b1110110001100100000000000000 "
b1110110001100100000000000000 .
b1110101001111001000000000000 /
1$
#150000
b1100001100000000 +
0$
b11000011000000000000000000000000 *
b1100001100000000 (
b11111111111111111100001100000000 1
#155000
b1110101001111001000000000000 "
b1110101001111001000000000000 .
b1110100010010000000000000000 /
1$
#160000
b1100001101000000 +
0$
b11000011010000000000000000000000 *
b1100001101000000 (
b11111111111111111100001101000000 1
#165000
b1110100010010000000000000000 "
b1110100010010000000000000000 .
b1110011010101001000000000000 /
1$
#170000
b1100001110000000 +
0$
b11000011100000000000000000000000 *
b1100001110000000 (
b11111111111111111100001110000000 1
#175000
b1110011010101001000000000000 "
b1110011010101001000000000000 .
b1110010011000100000000000000 /
1$
#180000
b1100001111000000 +
0$
b11000011110000000000000000000000 *
b1100001111000000 (
b11111111111111111100001111000000 1
#185000
b1110010011000100000000000000 "
b1110010011000100000000000000 .
b1110001011100001000000000000 /
1$
#190000
b1100010000000000 +
0$
b11000100000000000000000000000000 *
b1100010000000000 (
b11111111111111111100010000000000 1
#195000
b1110001011100001000000000000 "
b1110001011100001000000000000 .
b1110000100000000000000000000 /
1$
#200000
b1100010001000000 +
0$
b11000100010000000000000000000000 *
b1100010001000000 (
b11111111111111111100010001000000 1
#205000
b1110000100000000000000000000 "
b1110000100000000000000000000 .
b1101111100100001000000000000 /
1$
#210000
b1100010010000000 +
0$
b11000100100000000000000000000000 *
b1100010010000000 (
b11111111111111111100010010000000 1
#215000
b1101111100100001000000000000 "
b1101111100100001000000000000 .
b1101110101000100000000000000 /
1$
#220000
b1100010011000000 +
0$
b11000100110000000000000000000000 *
b1100010011000000 (
b11111111111111111100010011000000 1
#225000
b1101110101000100000000000000 "
b1101110101000100000000000000 .
b1101101101101001000000000000 /
1$
#230000
b1100010100000000 +
0$
b11000101000000000000000000000000 *
b1100010100000000 (
b11111111111111111100010100000000 1
#235000
b1101101101101001000000000000 "
b1101101101101001000000000000 .
b1101100110010000000000000000 /
1$
#240000
b1100010101000000 +
0$
b11000101010000000000000000000000 *
b1100010101000000 (
b11111111111111111100010101000000 1
#245000
b1101100110010000000000000000 "
b1101100110010000000000000000 .
b1101011110111001000000000000 /
1$
#250000
b1100010110000000 +
0$
b11000101100000000000000000000000 *
b1100010110000000 (
b11111111111111111100010110000000 1
#255000
b1101011110111001000000000000 "
b1101011110111001000000000000 .
b1101010111100100000000000000 /
1$
#260000
b1100010111000000 +
0$
b11000101110000000000000000000000 *
b1100010111000000 (
b11111111111111111100010111000000 1
#265000
b1101010111100100000000000000 "
b1101010111100100000000000000 .
b1101010000010001000000000000 /
1$
#270000
b1100011000000000 +
0$
b11000110000000000000000000000000 *
b1100011000000000 (
b11111111111111111100011000000000 1
#275000
b1101010000010001000000000000 "
b1101010000010001000000000000 .
b1101001001000000000000000000 /
1$
#280000
b1100011001000000 +
0$
b11000110010000000000000000000000 *
b1100011001000000 (
b11111111111111111100011001000000 1
#285000
b1101001001000000000000000000 "
b1101001001000000000000000000 .
b1101000001110001000000000000 /
1$
#290000
b1100011010000000 +
0$
b11000110100000000000000000000000 *
b1100011010000000 (
b11111111111111111100011010000000 1
#295000
b1101000001110001000000000000 "
b1101000001110001000000000000 .
b1100111010100100000000000000 /
1$
#300000
b1100011011000000 +
0$
b11000110110000000000000000000000 *
b1100011011000000 (
b11111111111111111100011011000000 1
#305000
b1100111010100100000000000000 "
b1100111010100100000000000000 .
b1100110011011001000000000000 /
1$
#310000
b1100011100000000 +
0$
b11000111000000000000000000000000 *
b1100011100000000 (
b11111111111111111100011100000000 1
#315000
b1100110011011001000000000000 "
b1100110011011001000000000000 .
b1100101100010000000000000000 /
1$
#320000
b1100011101000000 +
0$
b11000111010000000000000000000000 *
b1100011101000000 (
b11111111111111111100011101000000 1
#325000
b1100101100010000000000000000 "
b1100101100010000000000000000 .
b1100100101001001000000000000 /
1$
#330000
b1100011110000000 +
0$
b11000111100000000000000000000000 *
b1100011110000000 (
b11111111111111111100011110000000 1
#335000
b1100100101001001000000000000 "
b1100100101001001000000000000 .
b1100011110000100000000000000 /
1$
#340000
b1100011111000000 +
0$
b11000111110000000000000000000000 *
b1100011111000000 (
b11111111111111111100011111000000 1
#345000
b1100011110000100000000000000 "
b1100011110000100000000000000 .
b1100010111000001000000000000 /
1$
#350000
b1100100000000000 +
0$
b11001000000000000000000000000000 *
b1100100000000000 (
b11111111111111111100100000000000 1
#355000
b1100010111000001000000000000 "
b1100010111000001000000000000 .
b1100010000000000000000000000 /
1$
#360000
b1100100001000000 +
0$
b11001000010000000000000000000000 *
b1100100001000000 (
b11111111111111111100100001000000 1
#365000
b1100010000000000000000000000 "
b1100010000000000000000000000 .
b1100001001000001000000000000 /
1$
#370000
b1100100010000000 +
0$
b11001000100000000000000000000000 *
b1100100010000000 (
b11111111111111111100100010000000 1
#375000
b1100001001000001000000000000 "
b1100001001000001000000000000 .
b1100000010000100000000000000 /
1$
#380000
b1100100011000000 +
0$
b11001000110000000000000000000000 *
b1100100011000000 (
b11111111111111111100100011000000 1
#385000
b1100000010000100000000000000 "
b1100000010000100000000000000 .
b1011111011001001000000000000 /
1$
#390000
b1100100100000000 +
0$
b11001001000000000000000000000000 *
b1100100100000000 (
b11111111111111111100100100000000 1
#395000
b1011111011001001000000000000 "
b1011111011001001000000000000 .
b1011110100010000000000000000 /
1$
#400000
b1100100101000000 +
0$
b11001001010000000000000000000000 *
b1100100101000000 (
b11111111111111111100100101000000 1
#405000
b1011110100010000000000000000 "
b1011110100010000000000000000 .
b1011101101011001000000000000 /
1$
#410000
b1100100110000000 +
0$
b11001001100000000000000000000000 *
b1100100110000000 (
b11111111111111111100100110000000 1
#415000
b1011101101011001000000000000 "
b1011101101011001000000000000 .
b1011100110100100000000000000 /
1$
#420000
b1100100111000000 +
0$
b11001001110000000000000000000000 *
b1100100111000000 (
b11111111111111111100100111000000 1
#425000
b1011100110100100000000000000 "
b1011100110100100000000000000 .
b1011011111110001000000000000 /
1$
#430000
b1100101000000000 +
0$
b11001010000000000000000000000000 *
b1100101000000000 (
b11111111111111111100101000000000 1
#435000
b1011011111110001000000000000 "
b1011011111110001000000000000 .
b1011011001000000000000000000 /
1$
#440000
b1100101001000000 +
0$
b11001010010000000000000000000000 *
b1100101001000000 (
b11111111111111111100101001000000 1
#445000
b1011011001000000000000000000 "
b1011011001000000000000000000 .
b1011010010010001000000000000 /
1$
#450000
b1100101010000000 +
0$
b11001010100000000000000000000000 *
b1100101010000000 (
b11111111111111111100101010000000 1
#455000
b1011010010010001000000000000 "
b1011010010010001000000000000 .
b1011001011100100000000000000 /
1$
#460000
b1100101011000000 +
0$
b11001010110000000000000000000000 *
b1100101011000000 (
b11111111111111111100101011000000 1
#465000
b1011001011100100000000000000 "
b1011001011100100000000000000 .
b1011000100111001000000000000 /
1$
#470000
b1100101100000000 +
0$
b11001011000000000000000000000000 *
b1100101100000000 (
b11111111111111111100101100000000 1
#475000
b1011000100111001000000000000 "
b1011000100111001000000000000 .
b1010111110010000000000000000 /
1$
#480000
b1100101101000000 +
0$
b11001011010000000000000000000000 *
b1100101101000000 (
b11111111111111111100101101000000 1
#485000
b1010111110010000000000000000 "
b1010111110010000000000000000 .
b1010110111101001000000000000 /
1$
#490000
b1100101110000000 +
0$
b11001011100000000000000000000000 *
b1100101110000000 (
b11111111111111111100101110000000 1
#495000
b1010110111101001000000000000 "
b1010110111101001000000000000 .
b1010110001000100000000000000 /
1$
#500000
b1100101111000000 +
0$
b11001011110000000000000000000000 *
b1100101111000000 (
b11111111111111111100101111000000 1
#505000
b1010110001000100000000000000 "
b1010110001000100000000000000 .
b1010101010100001000000000000 /
1$
#510000
b1100110000000000 +
0$
b11001100000000000000000000000000 *
b1100110000000000 (
b11111111111111111100110000000000 1
#515000
b1010101010100001000000000000 "
b1010101010100001000000000000 .
b1010100100000000000000000000 /
1$
#520000
b1100110001000000 +
0$
b11001100010000000000000000000000 *
b1100110001000000 (
b11111111111111111100110001000000 1
#525000
b1010100100000000000000000000 "
b1010100100000000000000000000 .
b1010011101100001000000000000 /
1$
#530000
b1100110010000000 +
0$
b11001100100000000000000000000000 *
b1100110010000000 (
b11111111111111111100110010000000 1
#535000
b1010011101100001000000000000 "
b1010011101100001000000000000 .
b1010010111000100000000000000 /
1$
#540000
b1100110011000000 +
0$
b11001100110000000000000000000000 *
b1100110011000000 (
b11111111111111111100110011000000 1
#545000
b1010010111000100000000000000 "
b1010010111000100000000000000 .
b1010010000101001000000000000 /
1$
#550000
b1100110100000000 +
0$
b11001101000000000000000000000000 *
b1100110100000000 (
b11111111111111111100110100000000 1
#555000
b1010010000101001000000000000 "
b1010010000101001000000000000 .
b1010001010010000000000000000 /
1$
#560000
b1100110101000000 +
0$
b11001101010000000000000000000000 *
b1100110101000000 (
b11111111111111111100110101000000 1
#565000
b1010001010010000000000000000 "
b1010001010010000000000000000 .
b1010000011111001000000000000 /
1$
#570000
b1100110110000000 +
0$
b11001101100000000000000000000000 *
b1100110110000000 (
b11111111111111111100110110000000 1
#575000
b1010000011111001000000000000 "
b1010000011111001000000000000 .
b1001111101100100000000000000 /
1$
#580000
b1100110111000000 +
0$
b11001101110000000000000000000000 *
b1100110111000000 (
b11111111111111111100110111000000 1
#585000
b1001111101100100000000000000 "
b1001111101100100000000000000 .
b1001110111010001000000000000 /
1$
#590000
b1100111000000000 +
0$
b11001110000000000000000000000000 *
b1100111000000000 (
b11111111111111111100111000000000 1
#595000
b1001110111010001000000000000 "
b1001110111010001000000000000 .
b1001110001000000000000000000 /
1$
#600000
b1100111001000000 +
0$
b11001110010000000000000000000000 *
b1100111001000000 (
b11111111111111111100111001000000 1
#605000
b1001110001000000000000000000 "
b1001110001000000000000000000 .
b1001101010110001000000000000 /
1$
#610000
b1100111010000000 +
0$
b11001110100000000000000000000000 *
b1100111010000000 (
b11111111111111111100111010000000 1
#615000
b1001101010110001000000000000 "
b1001101010110001000000000000 .
b1001100100100100000000000000 /
1$
#620000
b1100111011000000 +
0$
b11001110110000000000000000000000 *
b1100111011000000 (
b11111111111111111100111011000000 1
#625000
b1001100100100100000000000000 "
b1001100100100100000000000000 .
b1001011110011001000000000000 /
1$
#630000
b1100111100000000 +
0$
b11001111000000000000000000000000 *
b1100111100000000 (
b11111111111111111100111100000000 1
#635000
b1001011110011001000000000000 "
b1001011110011001000000000000 .
b1001011000010000000000000000 /
1$
#640000
b1100111101000000 +
0$
b11001111010000000000000000000000 *
b1100111101000000 (
b11111111111111111100111101000000 1
#645000
b1001011000010000000000000000 "
b1001011000010000000000000000 .
b1001010010001001000000000000 /
1$
#650000
b1100111110000000 +
0$
b11001111100000000000000000000000 *
b1100111110000000 (
b11111111111111111100111110000000 1
#655000
b1001010010001001000000000000 "
b1001010010001001000000000000 .
b1001001100000100000000000000 /
1$
#660000
b1100111111000000 +
0$
b11001111110000000000000000000000 *
b1100111111000000 (
b11111111111111111100111111000000 1
#665000
b1001001100000100000000000000 "
b1001001100000100000000000000 .
b1001000110000001000000000000 /
1$
#670000
b1101000000000000 +
0$
b11010000000000000000000000000000 *
b1101000000000000 (
b11111111111111111101000000000000 1
#675000
b1001000110000001000000000000 "
b1001000110000001000000000000 .
b1001000000000000000000000000 /
1$
#680000
b1101000001000000 +
0$
b11010000010000000000000000000000 *
b1101000001000000 (
b11111111111111111101000001000000 1
#685000
b1001000000000000000000000000 "
b1001000000000000000000000000 .
b1000111010000001000000000000 /
1$
#690000
b1101000010000000 +
0$
b11010000100000000000000000000000 *
b1101000010000000 (
b11111111111111111101000010000000 1
#695000
b1000111010000001000000000000 "
b1000111010000001000000000000 .
b1000110100000100000000000000 /
1$
#700000
b1101000011000000 +
0$
b11010000110000000000000000000000 *
b1101000011000000 (
b11111111111111111101000011000000 1
#705000
b1000110100000100000000000000 "
b1000110100000100000000000000 .
b1000101110001001000000000000 /
1$
#710000
b1101000100000000 +
0$
b11010001000000000000000000000000 *
b1101000100000000 (
b11111111111111111101000100000000 1
#715000
b1000101110001001000000000000 "
b1000101110001001000000000000 .
b1000101000010000000000000000 /
1$
#720000
b1101000101000000 +
0$
b11010001010000000000000000000000 *
b1101000101000000 (
b11111111111111111101000101000000 1
#725000
b1000101000010000000000000000 "
b1000101000010000000000000000 .
b1000100010011001000000000000 /
1$
#730000
b1101000110000000 +
0$
b11010001100000000000000000000000 *
b1101000110000000 (
b11111111111111111101000110000000 1
#735000
b1000100010011001000000000000 "
b1000100010011001000000000000 .
b1000011100100100000000000000 /
1$
#740000
b1101000111000000 +
0$
b11010001110000000000000000000000 *
b1101000111000000 (
b11111111111111111101000111000000 1
#745000
b1000011100100100000000000000 "
b1000011100100100000000000000 .
b1000010110110001000000000000 /
1$
#750000
b1101001000000000 +
0$
b11010010000000000000000000000000 *
b1101001000000000 (
b11111111111111111101001000000000 1
#755000
b1000010110110001000000000000 "
b1000010110110001000000000000 .
b1000010001000000000000000000 /
1$
#760000
b1101001001000000 +
0$
b11010010010000000000000000000000 *
b1101001001000000 (
b11111111111111111101001001000000 1
#765000
b1000010001000000000000000000 "
b1000010001000000000000000000 .
b1000001011010001000000000000 /
1$
#770000
b1101001010000000 +
0$
b11010010100000000000000000000000 *
b1101001010000000 (
b11111111111111111101001010000000 1
#775000
b1000001011010001000000000000 "
b1000001011010001000000000000 .
b1000000101100100000000000000 /
1$
#780000
b1101001011000000 +
0$
b11010010110000000000000000000000 *
b1101001011000000 (
b11111111111111111101001011000000 1
#785000
b1000000101100100000000000000 "
b1000000101100100000000000000 .
b111111111111001000000000000 /
1$
#790000
b1101001100000000 +
0$
b11010011000000000000000000000000 *
b1101001100000000 (
b11111111111111111101001100000000 1
#795000
b111111111111001000000000000 "
b111111111111001000000000000 .
b111111010010000000000000000 /
1$
#800000
b1101001101000000 +
0$
b11010011010000000000000000000000 *
b1101001101000000 (
b11111111111111111101001101000000 1
#805000
b111111010010000000000000000 "
b111111010010000000000000000 .
b111110100101001000000000000 /
1$
#810000
b1101001110000000 +
0$
b11010011100000000000000000000000 *
b1101001110000000 (
b11111111111111111101001110000000 1
#815000
b111110100101001000000000000 "
b111110100101001000000000000 .
b111101111000100000000000000 /
1$
#820000
b1101001111000000 +
0$
b11010011110000000000000000000000 *
b1101001111000000 (
b11111111111111111101001111000000 1
#825000
b111101111000100000000000000 "
b111101111000100000000000000 .
b111101001100001000000000000 /
1$
#830000
b1101010000000000 +
0$
b11010100000000000000000000000000 *
b1101010000000000 (
b11111111111111111101010000000000 1
#835000
b111101001100001000000000000 "
b111101001100001000000000000 .
b111100100000000000000000000 /
1$
#840000
b1101010001000000 +
0$
b11010100010000000000000000000000 *
b1101010001000000 (
b11111111111111111101010001000000 1
#845000
b111100100000000000000000000 "
b111100100000000000000000000 .
b111011110100001000000000000 /
1$
#850000
b1101010010000000 +
0$
b11010100100000000000000000000000 *
b1101010010000000 (
b11111111111111111101010010000000 1
#855000
b111011110100001000000000000 "
b111011110100001000000000000 .
b111011001000100000000000000 /
1$
#860000
b1101010011000000 +
0$
b11010100110000000000000000000000 *
b1101010011000000 (
b11111111111111111101010011000000 1
#865000
b111011001000100000000000000 "
b111011001000100000000000000 .
b111010011101001000000000000 /
1$
#870000
b1101010100000000 +
0$
b11010101000000000000000000000000 *
b1101010100000000 (
b11111111111111111101010100000000 1
#875000
b111010011101001000000000000 "
b111010011101001000000000000 .
b111001110010000000000000000 /
1$
#880000
b1101010101000000 +
0$
b11010101010000000000000000000000 *
b1101010101000000 (
b11111111111111111101010101000000 1
#885000
b111001110010000000000000000 "
b111001110010000000000000000 .
b111001000111001000000000000 /
1$
#890000
b1101010110000000 +
0$
b11010101100000000000000000000000 *
b1101010110000000 (
b11111111111111111101010110000000 1
#895000
b111001000111001000000000000 "
b111001000111001000000000000 .
b111000011100100000000000000 /
1$
#900000
b1101010111000000 +
0$
b11010101110000000000000000000000 *
b1101010111000000 (
b11111111111111111101010111000000 1
#905000
b111000011100100000000000000 "
b111000011100100000000000000 .
b110111110010001000000000000 /
1$
#910000
b1101011000000000 +
0$
b11010110000000000000000000000000 *
b1101011000000000 (
b11111111111111111101011000000000 1
#915000
b110111110010001000000000000 "
b110111110010001000000000000 .
b110111001000000000000000000 /
1$
#920000
b1101011001000000 +
0$
b11010110010000000000000000000000 *
b1101011001000000 (
b11111111111111111101011001000000 1
#925000
b110111001000000000000000000 "
b110111001000000000000000000 .
b110110011110001000000000000 /
1$
#930000
b1101011010000000 +
0$
b11010110100000000000000000000000 *
b1101011010000000 (
b11111111111111111101011010000000 1
#935000
b110110011110001000000000000 "
b110110011110001000000000000 .
b110101110100100000000000000 /
1$
#940000
b1101011011000000 +
0$
b11010110110000000000000000000000 *
b1101011011000000 (
b11111111111111111101011011000000 1
#945000
b110101110100100000000000000 "
b110101110100100000000000000 .
b110101001011001000000000000 /
1$
#950000
b1101011100000000 +
0$
b11010111000000000000000000000000 *
b1101011100000000 (
b11111111111111111101011100000000 1
#955000
b110101001011001000000000000 "
b110101001011001000000000000 .
b110100100010000000000000000 /
1$
#960000
b1101011101000000 +
0$
b11010111010000000000000000000000 *
b1101011101000000 (
b11111111111111111101011101000000 1
#965000
b110100100010000000000000000 "
b110100100010000000000000000 .
b110011111001001000000000000 /
1$
#970000
b1101011110000000 +
0$
b11010111100000000000000000000000 *
b1101011110000000 (
b11111111111111111101011110000000 1
#975000
b110011111001001000000000000 "
b110011111001001000000000000 .
b110011010000100000000000000 /
1$
#980000
b1101011111000000 +
0$
b11010111110000000000000000000000 *
b1101011111000000 (
b11111111111111111101011111000000 1
#985000
b110011010000100000000000000 "
b110011010000100000000000000 .
b110010101000001000000000000 /
1$
#990000
b1101100000000000 +
0$
b11011000000000000000000000000000 *
b1101100000000000 (
b11111111111111111101100000000000 1
#995000
b110010101000001000000000000 "
b110010101000001000000000000 .
b110010000000000000000000000 /
1$
#1000000
b1101100001000000 +
0$
b11011000010000000000000000000000 *
b1101100001000000 (
b11111111111111111101100001000000 1
#1005000
b110010000000000000000000000 "
b110010000000000000000000000 .
b110001011000001000000000000 /
1$
#1010000
b1101100010000000 +
0$
b11011000100000000000000000000000 *
b1101100010000000 (
b11111111111111111101100010000000 1
#1015000
b110001011000001000000000000 "
b110001011000001000000000000 .
b110000110000100000000000000 /
1$
#1020000
b1101100011000000 +
0$
b11011000110000000000000000000000 *
b1101100011000000 (
b11111111111111111101100011000000 1
#1025000
b110000110000100000000000000 "
b110000110000100000000000000 .
b110000001001001000000000000 /
1$
#1030000
b1101100100000000 +
0$
b11011001000000000000000000000000 *
b1101100100000000 (
b11111111111111111101100100000000 1
#1035000
b110000001001001000000000000 "
b110000001001001000000000000 .
b101111100010000000000000000 /
1$
#1040000
b1101100101000000 +
0$
b11011001010000000000000000000000 *
b1101100101000000 (
b11111111111111111101100101000000 1
#1045000
b101111100010000000000000000 "
b101111100010000000000000000 .
b101110111011001000000000000 /
1$
#1050000
b1101100110000000 +
0$
b11011001100000000000000000000000 *
b1101100110000000 (
b11111111111111111101100110000000 1
#1055000
b101110111011001000000000000 "
b101110111011001000000000000 .
b101110010100100000000000000 /
1$
#1060000
b1101100111000000 +
0$
b11011001110000000000000000000000 *
b1101100111000000 (
b11111111111111111101100111000000 1
#1065000
b101110010100100000000000000 "
b101110010100100000000000000 .
b101101101110001000000000000 /
1$
#1070000
b1101101000000000 +
0$
b11011010000000000000000000000000 *
b1101101000000000 (
b11111111111111111101101000000000 1
#1075000
b101101101110001000000000000 "
b101101101110001000000000000 .
b101101001000000000000000000 /
1$
#1080000
b1101101001000000 +
0$
b11011010010000000000000000000000 *
b1101101001000000 (
b11111111111111111101101001000000 1
#1085000
b101101001000000000000000000 "
b101101001000000000000000000 .
b101100100010001000000000000 /
1$
#1090000
b1101101010000000 +
0$
b11011010100000000000000000000000 *
b1101101010000000 (
b11111111111111111101101010000000 1
#1095000
b101100100010001000000000000 "
b101100100010001000000000000 .
b101011111100100000000000000 /
1$
#1100000
b1101101011000000 +
0$
b11011010110000000000000000000000 *
b1101101011000000 (
b11111111111111111101101011000000 1
#1105000
b101011111100100000000000000 "
b101011111100100000000000000 .
b101011010111001000000000000 /
1$
#1110000
b1101101100000000 +
0$
b11011011000000000000000000000000 *
b1101101100000000 (
b11111111111111111101101100000000 1
#1115000
b101011010111001000000000000 "
b101011010111001000000000000 .
b101010110010000000000000000 /
1$
#1120000
b1101101101000000 +
0$
b11011011010000000000000000000000 *
b1101101101000000 (
b11111111111111111101101101000000 1
#1125000
b101010110010000000000000000 "
b101010110010000000000000000 .
b101010001101001000000000000 /
1$
#1130000
b1101101110000000 +
0$
b11011011100000000000000000000000 *
b1101101110000000 (
b11111111111111111101101110000000 1
#1135000
b101010001101001000000000000 "
b101010001101001000000000000 .
b101001101000100000000000000 /
1$
#1140000
b1101101111000000 +
0$
b11011011110000000000000000000000 *
b1101101111000000 (
b11111111111111111101101111000000 1
#1145000
b101001101000100000000000000 "
b101001101000100000000000000 .
b101001000100001000000000000 /
1$
#1150000
b1101110000000000 +
0$
b11011100000000000000000000000000 *
b1101110000000000 (
b11111111111111111101110000000000 1
#1155000
b101001000100001000000000000 "
b101001000100001000000000000 .
b101000100000000000000000000 /
1$
#1160000
b1101110001000000 +
0$
b11011100010000000000000000000000 *
b1101110001000000 (
b11111111111111111101110001000000 1
#1165000
b101000100000000000000000000 "
b101000100000000000000000000 .
b100111111100001000000000000 /
1$
#1170000
b1101110010000000 +
0$
b11011100100000000000000000000000 *
b1101110010000000 (
b11111111111111111101110010000000 1
#1175000
b100111111100001000000000000 "
b100111111100001000000000000 .
b100111011000100000000000000 /
1$
#1180000
b1101110011000000 +
0$
b11011100110000000000000000000000 *
b1101110011000000 (
b11111111111111111101110011000000 1
#1185000
b100111011000100000000000000 "
b100111011000100000000000000 .
b100110110101001000000000000 /
1$
#1190000
b1101110100000000 +
0$
b11011101000000000000000000000000 *
b1101110100000000 (
b11111111111111111101110100000000 1
#1195000
b100110110101001000000000000 "
b100110110101001000000000000 .
b100110010010000000000000000 /
1$
#1200000
b1101110101000000 +
0$
b11011101010000000000000000000000 *
b1101110101000000 (
b11111111111111111101110101000000 1
#1205000
b100110010010000000000000000 "
b100110010010000000000000000 .
b100101101111001000000000000 /
1$
#1210000
b1101110110000000 +
0$
b11011101100000000000000000000000 *
b1101110110000000 (
b11111111111111111101110110000000 1
#1215000
b100101101111001000000000000 "
b100101101111001000000000000 .
b100101001100100000000000000 /
1$
#1220000
b1101110111000000 +
0$
b11011101110000000000000000000000 *
b1101110111000000 (
b11111111111111111101110111000000 1
#1225000
b100101001100100000000000000 "
b100101001100100000000000000 .
b100100101010001000000000000 /
1$
#1230000
b1101111000000000 +
0$
b11011110000000000000000000000000 *
b1101111000000000 (
b11111111111111111101111000000000 1
#1235000
b100100101010001000000000000 "
b100100101010001000000000000 .
b100100001000000000000000000 /
1$
#1240000
b1101111001000000 +
0$
b11011110010000000000000000000000 *
b1101111001000000 (
b11111111111111111101111001000000 1
#1245000
b100100001000000000000000000 "
b100100001000000000000000000 .
b100011100110001000000000000 /
1$
#1250000
b1101111010000000 +
0$
b11011110100000000000000000000000 *
b1101111010000000 (
b11111111111111111101111010000000 1
#1255000
b100011100110001000000000000 "
b100011100110001000000000000 .
b100011000100100000000000000 /
1$
#1260000
b1101111011000000 +
0$
b11011110110000000000000000000000 *
b1101111011000000 (
b11111111111111111101111011000000 1
#1265000
b100011000100100000000000000 "
b100011000100100000000000000 .
b100010100011001000000000000 /
1$
#1270000
b1101111100000000 +
0$
b11011111000000000000000000000000 *
b1101111100000000 (
b11111111111111111101111100000000 1
#1275000
b100010100011001000000000000 "
b100010100011001000000000000 .
b100010000010000000000000000 /
1$
#1280000
b1101111101000000 +
0$
b11011111010000000000000000000000 *
b1101111101000000 (
b11111111111111111101111101000000 1
#1285000
b100010000010000000000000000 "
b100010000010000000000000000 .
b100001100001001000000000000 /
1$
#1290000
b1101111110000000 +
0$
b11011111100000000000000000000000 *
b1101111110000000 (
b11111111111111111101111110000000 1
#1295000
b100001100001001000000000000 "
b100001100001001000000000000 .
b100001000000100000000000000 /
1$
#1300000
b1101111111000000 +
0$
b11011111110000000000000000000000 *
b1101111111000000 (
b11111111111111111101111111000000 1
#1305000
b100001000000100000000000000 "
b100001000000100000000000000 .
b100000100000001000000000000 /
1$
#1310000
b1110000000000000 +
0$
b11100000000000000000000000000000 *
b1110000000000000 (
b11111111111111111110000000000000 1
#1315000
b100000100000001000000000000 "
b100000100000001000000000000 .
b100000000000000000000000000 /
1$
#1320000
b1110000001000000 +
0$
b11100000010000000000000000000000 *
b1110000001000000 (
b11111111111111111110000001000000 1
#1325000
b100000000000000000000000000 "
b100000000000000000000000000 .
b11111100000001000000000000 /
1$
#1330000
b1110000010000000 +
0$
b11100000100000000000000000000000 *
b1110000010000000 (
b11111111111111111110000010000000 1
#1335000
b11111100000001000000000000 "
b11111100000001000000000000 .
b11111000000100000000000000 /
1$
#1340000
b1110000011000000 +
0$
b11100000110000000000000000000000 *
b1110000011000000 (
b11111111111111111110000011000000 1
#1345000
b11111000000100000000000000 "
b11111000000100000000000000 .
b11110100001001000000000000 /
1$
#1350000
b1110000100000000 +
0$
b11100001000000000000000000000000 *
b1110000100000000 (
b11111111111111111110000100000000 1
#1355000
b11110100001001000000000000 "
b11110100001001000000000000 .
b11110000010000000000000000 /
1$
#1360000
b1110000101000000 +
0$
b11100001010000000000000000000000 *
b1110000101000000 (
b11111111111111111110000101000000 1
#1365000
b11110000010000000000000000 "
b11110000010000000000000000 .
b11101100011001000000000000 /
1$
#1370000
b1110000110000000 +
0$
b11100001100000000000000000000000 *
b1110000110000000 (
b11111111111111111110000110000000 1
