triangular_filter.vcd
$date
	Sat Nov  4 16:52:15 2023
$end
$version
	Icarus Verilog
$end
$timescale
	1ps
$end
$scope module triangular_filter_tb $end
$var wire 32 ! filtered_out [31:0] $end
$var reg 1 " clk_in $end
$var reg 9 # k_in [8:0] $end
$var reg 32 $ power_in [31:0] $end
$var reg 1 % rst_in $end
$scope module uut $end
$var wire 1 " clk_in $end
$var wire 9 & k_in [8:0] $end
$var wire 32 ' power_in [31:0] $end
$var wire 1 % rst_in $end
$var parameter 42 ( INV_LOWER_BANDWIDTH $end
$var parameter 32 ) INV_PRECISION $end
$var parameter 42 * INV_UPPER_BANDWIDTH $end
$var parameter 32 + N_FFT $end
$var parameter 32 , PEAK $end
$var parameter 32 - START $end
$var parameter 32 . STOP $end
$var reg 32 / filtered_out [31:0] $end
$var reg 32 0 power_buffer [31:0] $end
$var reg 32 1 scale_factor [31:0] $end
$upscope $end
$scope begin $ivl_for_loop0 $end
$var integer 32 2 i [31:0] $end
$upscope $end
$scope begin $ivl_for_loop1 $end
$var integer 32 3 i [31:0] $end
$upscope $end
$upscope $end
$enddefinitions $end
$comment Show the parameter values. $end
$dumpall
b100000000 .
b10100101 -
b11001110 ,
b1000000000 +
b10100 *
b1010 )
b11000 (
$end
#0
$dumpvars
b0 3
b0 2
bx 1
bx 0
bx /
b0 '
b0 &
0%
b0 $
b0 #
0"
bx !
$end
#5000
b0 1
b0 0
1"
#10000
0"
1%
#15000
b0 !
b0 /
1"
#20000
0"
0%
#25000
1"
#30000
0"
b11011110101011011011111011101111 $
b11011110101011011011111011101111 '
#35000
b1101111010101101101111 0
1"
#40000
0"
b1 #
b1 &
b1 2
#45000
1"
#50000
0"
b10 #
b10 &
b10 2
#55000
1"
#60000
0"
b11 #
b11 &
b11 2
#65000
1"
#70000
0"
b100 #
b100 &
b100 2
#75000
1"
#80000
0"
b101 #
b101 &
b101 2
#85000
1"
#90000
0"
b110 #
b110 &
b110 2
#95000
1"
#100000
0"
b111 #
b111 &
b111 2
#105000
1"
#110000
0"
b1000 #
b1000 &
b1000 2
#115000
1"
#120000
0"
b1001 #
b1001 &
b1001 2
#125000
1"
#130000
0"
b1010 #
b1010 &
b1010 2
#135000
1"
#140000
0"
b1011 #
b1011 &
b1011 2
#145000
1"
#150000
0"
b1100 #
b1100 &
b1100 2
#155000
1"
#160000
0"
b1101 #
b1101 &
b1101 2
#165000
1"
#170000
0"
b1110 #
b1110 &
b1110 2
#175000
1"
#180000
0"
b1111 #
b1111 &
b1111 2
#185000
1"
#190000
0"
b10000 #
b10000 &
b10000 2
#195000
1"
#200000
0"
b10001 #
b10001 &
b10001 2
#205000
1"
#210000
0"
b10010 #
b10010 &
b10010 2
#215000
1"
#220000
0"
b10011 #
b10011 &
b10011 2
#225000
1"
#230000
0"
b10100 #
b10100 &
b10100 2
#235000
1"
#240000
0"
b10101 #
b10101 &
b10101 2
#245000
1"
#250000
0"
b10110 #
b10110 &
b10110 2
#255000
1"
#260000
0"
b10111 #
b10111 &
b10111 2
#265000
1"
#270000
0"
b11000 #
b11000 &
b11000 2
#275000
1"
#280000
0"
b11001 #
b11001 &
b11001 2
#285000
1"
#290000
0"
b11010 #
b11010 &
b11010 2
#295000
1"
#300000
0"
b11011 #
b11011 &
b11011 2
#305000
1"
#310000
0"
b11100 #
b11100 &
b11100 2
#315000
1"
#320000
0"
b11101 #
b11101 &
b11101 2
#325000
1"
#330000
0"
b11110 #
b11110 &
b11110 2
#335000
1"
#340000
0"
b11111 #
b11111 &
b11111 2
#345000
1"
#350000
0"
b100000 #
b100000 &
b100000 2
#355000
1"
#360000
0"
b100001 #
b100001 &
b100001 2
#365000
1"
#370000
0"
b100010 #
b100010 &
b100010 2
#375000
1"
#380000
0"
b100011 #
b100011 &
b100011 2
#385000
1"
#390000
0"
b100100 #
b100100 &
b100100 2
#395000
1"
#400000
0"
b100101 #
b100101 &
b100101 2
#405000
1"
#410000
0"
b100110 #
b100110 &
b100110 2
#415000
1"
#420000
0"
b100111 #
b100111 &
b100111 2
#425000
1"
#430000
0"
b101000 #
b101000 &
b101000 2
#435000
1"
#440000
0"
b101001 #
b101001 &
b101001 2
#445000
1"
#450000
0"
b101010 #
b101010 &
b101010 2
#455000
1"
#460000
0"
b101011 #
b101011 &
b101011 2
#465000
1"
#470000
0"
b101100 #
b101100 &
b101100 2
#475000
1"
#480000
0"
b101101 #
b101101 &
b101101 2
#485000
1"
#490000
0"
b101110 #
b101110 &
b101110 2
#495000
1"
#500000
0"
b101111 #
b101111 &
b101111 2
#505000
1"
#510000
0"
b110000 #
b110000 &
b110000 2
#515000
1"
#520000
0"
b110001 #
b110001 &
b110001 2
#525000
1"
#530000
0"
b110010 #
b110010 &
b110010 2
#535000
1"
#540000
0"
b110011 #
b110011 &
b110011 2
#545000
1"
#550000
0"
b110100 #
b110100 &
b110100 2
#555000
1"
#560000
0"
b110101 #
b110101 &
b110101 2
#565000
1"
#570000
0"
b110110 #
b110110 &
b110110 2
#575000
1"
#580000
0"
b110111 #
b110111 &
b110111 2
#585000
1"
#590000
0"
b111000 #
b111000 &
b111000 2
#595000
1"
#600000
0"
b111001 #
b111001 &
b111001 2
#605000
1"
#610000
0"
b111010 #
b111010 &
b111010 2
#615000
1"
#620000
0"
b111011 #
b111011 &
b111011 2
#625000
1"
#630000
0"
b111100 #
b111100 &
b111100 2
#635000
1"
#640000
0"
b111101 #
b111101 &
b111101 2
#645000
1"
#650000
0"
b111110 #
b111110 &
b111110 2
#655000
1"
#660000
0"
b111111 #
b111111 &
b111111 2
#665000
1"
#670000
0"
b1000000 #
b1000000 &
b1000000 2
#675000
1"
#680000
0"
b1000001 #
b1000001 &
b1000001 2
#685000
1"
#690000
0"
b1000010 #
b1000010 &
b1000010 2
#695000
1"
#700000
0"
b1000011 #
b1000011 &
b1000011 2
#705000
1"
#710000
0"
b1000100 #
b1000100 &
b1000100 2
#715000
1"
#720000
0"
b1000101 #
b1000101 &
b1000101 2
#725000
1"
#730000
0"
b1000110 #
b1000110 &
b1000110 2
#735000
1"
#740000
0"
b1000111 #
b1000111 &
b1000111 2
#745000
1"
#750000
0"
b1001000 #
b1001000 &
b1001000 2
#755000
1"
#760000
0"
b1001001 #
b1001001 &
b1001001 2
#765000
1"
#770000
0"
b1001010 #
b1001010 &
b1001010 2
#775000
1"
#780000
0"
b1001011 #
b1001011 &
b1001011 2
#785000
1"
#790000
0"
b1001100 #
b1001100 &
b1001100 2
#795000
1"
#800000
0"
b1001101 #
b1001101 &
b1001101 2
#805000
1"
#810000
0"
b1001110 #
b1001110 &
b1001110 2
#815000
1"
#820000
0"
b1001111 #
b1001111 &
b1001111 2
#825000
1"
#830000
0"
b1010000 #
b1010000 &
b1010000 2
#835000
1"
#840000
0"
b1010001 #
b1010001 &
b1010001 2
#845000
1"
#850000
0"
b1010010 #
b1010010 &
b1010010 2
#855000
1"
#860000
0"
b1010011 #
b1010011 &
b1010011 2
#865000
1"
#870000
0"
b1010100 #
b1010100 &
b1010100 2
#875000
1"
#880000
0"
b1010101 #
b1010101 &
b1010101 2
#885000
1"
#890000
0"
b1010110 #
b1010110 &
b1010110 2
#895000
1"
#900000
0"
b1010111 #
b1010111 &
b1010111 2
#905000
1"
#910000
0"
b1011000 #
b1011000 &
b1011000 2
#915000
1"
#920000
0"
b1011001 #
b1011001 &
b1011001 2
#925000
1"
#930000
0"
b1011010 #
b1011010 &
b1011010 2
#935000
1"
#940000
0"
b1011011 #
b1011011 &
b1011011 2
#945000
1"
#950000
0"
b1011100 #
b1011100 &
b1011100 2
#955000
1"
#960000
0"
b1011101 #
b1011101 &
b1011101 2
#965000
1"
#970000
0"
b1011110 #
b1011110 &
b1011110 2
#975000
1"
#980000
0"
b1011111 #
b1011111 &
b1011111 2
#985000
1"
#990000
0"
b1100000 #
b1100000 &
b1100000 2
#995000
1"
#1000000
0"
b1100001 #
b1100001 &
b1100001 2
#1005000
1"
#1010000
0"
b1100010 #
b1100010 &
b1100010 2
#1015000
1"
#1020000
0"
b1100011 #
b1100011 &
b1100011 2
#1025000
1"
#1030000
0"
b1100100 #
b1100100 &
b1100100 2
#1035000
1"
#1040000
0"
b1100101 #
b1100101 &
b1100101 2
#1045000
1"
#1050000
0"
b1100110 #
b1100110 &
b1100110 2
#1055000
1"
#1060000
0"
b1100111 #
b1100111 &
b1100111 2
#1065000
1"
#1070000
0"
b1101000 #
b1101000 &
b1101000 2
#1075000
1"
#1080000
0"
b1101001 #
b1101001 &
b1101001 2
#1085000
1"
#1090000
0"
b1101010 #
b1101010 &
b1101010 2
#1095000
1"
#1100000
0"
b1101011 #
b1101011 &
b1101011 2
#1105000
1"
#1110000
0"
b1101100 #
b1101100 &
b1101100 2
#1115000
1"
#1120000
0"
b1101101 #
b1101101 &
b1101101 2
#1125000
1"
#1130000
0"
b1101110 #
b1101110 &
b1101110 2
#1135000
1"
#1140000
0"
b1101111 #
b1101111 &
b1101111 2
#1145000
1"
#1150000
0"
b1110000 #
b1110000 &
b1110000 2
#1155000
1"
#1160000
0"
b1110001 #
b1110001 &
b1110001 2
#1165000
1"
#1170000
0"
b1110010 #
b1110010 &
b1110010 2
#1175000
1"
#1180000
0"
b1110011 #
b1110011 &
b1110011 2
#1185000
1"
#1190000
0"
b1110100 #
b1110100 &
b1110100 2
#1195000
1"
#1200000
0"
b1110101 #
b1110101 &
b1110101 2
#1205000
1"
#1210000
0"
b1110110 #
b1110110 &
b1110110 2
#1215000
1"
#1220000
0"
b1110111 #
b1110111 &
b1110111 2
#1225000
1"
#1230000
0"
b1111000 #
b1111000 &
b1111000 2
#1235000
1"
#1240000
0"
b1111001 #
b1111001 &
b1111001 2
#1245000
1"
#1250000
0"
b1111010 #
b1111010 &
b1111010 2
#1255000
1"
#1260000
0"
b1111011 #
b1111011 &
b1111011 2
#1265000
1"
#1270000
0"
b1111100 #
b1111100 &
b1111100 2
#1275000
1"
#1280000
0"
b1111101 #
b1111101 &
b1111101 2
#1285000
1"
#1290000
0"
b1111110 #
b1111110 &
b1111110 2
#1295000
1"
#1300000
0"
b1111111 #
b1111111 &
b1111111 2
#1305000
1"
#1310000
0"
b10000000 #
b10000000 &
b10000000 2
#1315000
1"
#1320000
0"
b10000001 #
b10000001 &
b10000001 2
#1325000
1"
#1330000
0"
b10000010 #
b10000010 &
b10000010 2
#1335000
1"
#1340000
0"
b10000011 #
b10000011 &
b10000011 2
#1345000
1"
#1350000
0"
b10000100 #
b10000100 &
b10000100 2
#1355000
1"
#1360000
0"
b10000101 #
b10000101 &
b10000101 2
#1365000
1"
#1370000
0"
b10000110 #
b10000110 &
b10000110 2
#1375000
1"
#1380000
0"
b10000111 #
b10000111 &
b10000111 2
#1385000
1"
#1390000
0"
b10001000 #
b10001000 &
b10001000 2
#1395000
1"
#1400000
0"
b10001001 #
b10001001 &
b10001001 2
#1405000
1"
#1410000
0"
b10001010 #
b10001010 &
b10001010 2
#1415000
1"
#1420000
0"
b10001011 #
b10001011 &
b10001011 2
#1425000
1"
#1430000
0"
b10001100 #
b10001100 &
b10001100 2
#1435000
1"
#1440000
0"
b10001101 #
b10001101 &
b10001101 2
#1445000
1"
#1450000
0"
b10001110 #
b10001110 &
b10001110 2
#1455000
1"
#1460000
0"
b10001111 #
b10001111 &
b10001111 2
#1465000
1"
#1470000
0"
b10010000 #
b10010000 &
b10010000 2
#1475000
1"
#1480000
0"
b10010001 #
b10010001 &
b10010001 2
#1485000
1"
#1490000
0"
b10010010 #
b10010010 &
b10010010 2
#1495000
1"
#1500000
0"
b10010011 #
b10010011 &
b10010011 2
#1505000
1"
#1510000
0"
b10010100 #
b10010100 &
b10010100 2
#1515000
1"
#1520000
0"
b10010101 #
b10010101 &
b10010101 2
#1525000
1"
#1530000
0"
b10010110 #
b10010110 &
b10010110 2
#1535000
1"
#1540000
0"
b10010111 #
b10010111 &
b10010111 2
#1545000
1"
#1550000
0"
b10011000 #
b10011000 &
b10011000 2
#1555000
1"
#1560000
0"
b10011001 #
b10011001 &
b10011001 2
#1565000
1"
#1570000
0"
b10011010 #
b10011010 &
b10011010 2
#1575000
1"
#1580000
0"
b10011011 #
b10011011 &
b10011011 2
#1585000
1"
#1590000
0"
b10011100 #
b10011100 &
b10011100 2
#1595000
1"
#1600000
0"
b10011101 #
b10011101 &
b10011101 2
#1605000
1"
#1610000
0"
b10011110 #
b10011110 &
b10011110 2
#1615000
1"
#1620000
0"
b10011111 #
b10011111 &
b10011111 2
#1625000
1"
#1630000
0"
b10100000 #
b10100000 &
b10100000 2
#1635000
1"
#1640000
0"
b10100001 #
b10100001 &
b10100001 2
#1645000
1"
#1650000
0"
b10100010 #
b10100010 &
b10100010 2
#1655000
1"
#1660000
0"
b10100011 #
b10100011 &
b10100011 2
#1665000
1"
#1670000
0"
b10100100 #
b10100100 &
b10100100 2
#1675000
1"
#1680000
0"
b10100101 #
b10100101 &
b10100101 2
#1685000
1"
#1690000
0"
b10100110 #
b10100110 &
b10100110 2
#1695000
b11000 1
1"
#1700000
0"
b10100111 #
b10100111 &
b10100111 2
#1705000
b101001110000001001001101000 !
b101001110000001001001101000 /
b110000 1
1"
#1710000
0"
b10101000 #
b10101000 &
b10101000 2
#1715000
b1010011100000010010011010000 !
b1010011100000010010011010000 /
b1001000 1
1"
#1720000
0"
b10101001 #
b10101001 &
b10101001 2
#1725000
b1111101010000011011100111000 !
b1111101010000011011100111000 /
b1100000 1
1"
#1730000
0"
b10101010 #
b10101010 &
b10101010 2
#1735000
b10100111000000100100110100000 !
b10100111000000100100110100000 /
b1111000 1
1"
#1740000
0"
b10101011 #
b10101011 &
b10101011 2
#1745000
b11010000110000101110000001000 !
b11010000110000101110000001000 /
b10010000 1
1"
#1750000
0"
b10101100 #
b10101100 &
b10101100 2
#1755000
b11111010100000110111001110000 !
b11111010100000110111001110000 /
b10101000 1
1"
#1760000
0"
b10101101 #
b10101101 &
b10101101 2
#1765000
b100100100010001000000011011000 !
b100100100010001000000011011000 /
b11000000 1
1"
#1770000
0"
b10101110 #
b10101110 &
b10101110 2
#1775000
b101001110000001001001101000000 !
b101001110000001001001101000000 /
b11011000 1
1"
#1780000
0"
b10101111 #
b10101111 &
b10101111 2
#1785000
b101110111110001010010110101000 !
b101110111110001010010110101000 /
b11110000 1
1"
#1790000
0"
b10110000 #
b10110000 &
b10110000 2
#1795000
b110100001100001011100000010000 !
b110100001100001011100000010000 /
b100001000 1
1"
#1800000
0"
b10110001 #
b10110001 &
b10110001 2
#1805000
b111001011010001100101001111000 !
b111001011010001100101001111000 /
b100100000 1
1"
#1810000
0"
b10110010 #
b10110010 &
b10110010 2
#1815000
b111110101000001101110011100000 !
b111110101000001101110011100000 /
b100111000 1
1"
#1820000
0"
b10110011 #
b10110011 &
b10110011 2
#1825000
b1000011110110001110111101001000 !
b1000011110110001110111101001000 /
b101010000 1
1"
#1830000
0"
b10110100 #
b10110100 &
b10110100 2
#1835000
b1001001000100010000000110110000 !
b1001001000100010000000110110000 /
b101101000 1
1"
#1840000
0"
b10110101 #
b10110101 &
b10110101 2
#1845000
b1001110010010010001010000011000 !
b1001110010010010001010000011000 /
b110000000 1
1"
#1850000
0"
b10110110 #
b10110110 &
b10110110 2
#1855000
b1010011100000010010011010000000 !
b1010011100000010010011010000000 /
b110011000 1
1"
#1860000
0"
b10110111 #
b10110111 &
b10110111 2
#1865000
b1011000101110010011100011101000 !
b1011000101110010011100011101000 /
b110110000 1
1"
#1870000
0"
b10111000 #
b10111000 &
b10111000 2
#1875000
b1011101111100010100101101010000 !
b1011101111100010100101101010000 /
b111001000 1
1"
#1880000
0"
b10111001 #
b10111001 &
b10111001 2
#1885000
b1100011001010010101110110111000 !
b1100011001010010101110110111000 /
b111100000 1
1"
#1890000
0"
b10111010 #
b10111010 &
b10111010 2
#1895000
b1101000011000010111000000100000 !
b1101000011000010111000000100000 /
b111111000 1
1"
#1900000
0"
b10111011 #
b10111011 &
b10111011 2
#1905000
b1101101100110011000001010001000 !
b1101101100110011000001010001000 /
b1000010000 1
1"
#1910000
0"
b10111100 #
b10111100 &
b10111100 2
#1915000
b1110010110100011001010011110000 !
b1110010110100011001010011110000 /
b1000101000 1
1"
#1920000
0"
b10111101 #
b10111101 &
b10111101 2
#1925000
b1111000000010011010011101011000 !
b1111000000010011010011101011000 /
b1001000000 1
1"
#1930000
0"
b10111110 #
b10111110 &
b10111110 2
#1935000
b1111101010000011011100111000000 !
b1111101010000011011100111000000 /
b1001011000 1
1"
#1940000
0"
b10111111 #
b10111111 &
b10111111 2
#1945000
b10000010011110011100110000101000 !
b10000010011110011100110000101000 /
b1001110000 1
1"
#1950000
0"
b11000000 #
b11000000 &
b11000000 2
#1955000
b10000111101100011101111010010000 !
b10000111101100011101111010010000 /
b1010001000 1
1"
#1960000
0"
b11000001 #
b11000001 &
b11000001 2
#1965000
b10001100111010011111000011111000 !
b10001100111010011111000011111000 /
b1010100000 1
1"
#1970000
0"
b11000010 #
b11000010 &
b11000010 2
#1975000
b10010010001000100000001101100000 !
b10010010001000100000001101100000 /
b1010111000 1
1"
#1980000
0"
b11000011 #
b11000011 &
b11000011 2
#1985000
b10010111010110100001010111001000 !
b10010111010110100001010111001000 /
b1011010000 1
1"
#1990000
0"
b11000100 #
b11000100 &
b11000100 2
#1995000
b10011100100100100010100000110000 !
b10011100100100100010100000110000 /
b1011101000 1
1"
#2000000
0"
b11000101 #
b11000101 &
b11000101 2
#2005000
b10100001110010100011101010011000 !
b10100001110010100011101010011000 /
b1100000000 1
1"
#2010000
0"
b11000110 #
b11000110 &
b11000110 2
#2015000
b10100111000000100100110100000000 !
b10100111000000100100110100000000 /
b1100011000 1
1"
#2020000
0"
b11000111 #
b11000111 &
b11000111 2
#2025000
b10101100001110100101111101101000 !
b10101100001110100101111101101000 /
b1100110000 1
1"
#2030000
0"
b11001000 #
b11001000 &
b11001000 2
#2035000
b10110001011100100111000111010000 !
b10110001011100100111000111010000 /
b1101001000 1
1"
#2040000
0"
b11001001 #
b11001001 &
b11001001 2
#2045000
b10110110101010101000010000111000 !
b10110110101010101000010000111000 /
b1101100000 1
1"
#2050000
0"
b11001010 #
b11001010 &
b11001010 2
#2055000
b10111011111000101001011010100000 !
b10111011111000101001011010100000 /
b1101111000 1
1"
#2060000
0"
b11001011 #
b11001011 &
b11001011 2
#2065000
b11000001000110101010100100001000 !
b11000001000110101010100100001000 /
b1110010000 1
1"
#2070000
0"
b11001100 #
b11001100 &
b11001100 2
#2075000
b11000110010100101011101101110000 !
b11000110010100101011101101110000 /
b1110101000 1
1"
#2080000
0"
b11001101 #
b11001101 &
b11001101 2
#2085000
b11001011100010101100110111011000 !
b11001011100010101100110111011000 /
b1111000000 1
1"
#2090000
0"
b11001110 #
b11001110 &
b11001110 2
#2095000
b11010000110000101110000001000000 !
b11010000110000101110000001000000 /
b1111101000 1
1"
#2100000
0"
b11001111 #
b11001111 &
b11001111 2
#2105000
b11011001011101011010100110011000 !
b11011001011101011010100110011000 /
b1111010100 1
1"
#2110000
0"
b11010000 #
b11010000 &
b11010000 2
#2115000
b11010101000111000100010011101100 !
b11010101000111000100010011101100 /
b1111000000 1
1"
#2120000
0"
b11010001 #
b11010001 &
b11010001 2
#2125000
b11010000110000101110000001000000 !
b11010000110000101110000001000000 /
b1110101100 1
1"
#2130000
0"
b11010010 #
b11010010 &
b11010010 2
#2135000
b11001100011010010111101110010100 !
b11001100011010010111101110010100 /
b1110011000 1
1"
#2140000
0"
b11010011 #
b11010011 &
b11010011 2
#2145000
b11001000000100000001011011101000 !
b11001000000100000001011011101000 /
b1110000100 1
1"
#2150000
0"
b11010100 #
b11010100 &
b11010100 2
#2155000
b11000011101101101011001000111100 !
b11000011101101101011001000111100 /
b1101110000 1
1"
#2160000
0"
b11010101 #
b11010101 &
b11010101 2
#2165000
b10111111010111010100110110010000 !
b10111111010111010100110110010000 /
b1101011100 1
1"
#2170000
0"
b11010110 #
b11010110 &
b11010110 2
#2175000
b10111011000000111110100011100100 !
b10111011000000111110100011100100 /
b1101001000 1
1"
#2180000
0"
b11010111 #
b11010111 &
b11010111 2
#2185000
b10110110101010101000010000111000 !
b10110110101010101000010000111000 /
b1100110100 1
1"
#2190000
0"
b11011000 #
b11011000 &
b11011000 2
#2195000
b10110010010100010001111110001100 !
b10110010010100010001111110001100 /
b1100100000 1
1"
#2200000
0"
b11011001 #
b11011001 &
b11011001 2
#2205000
b10101101111101111011101011100000 !
b10101101111101111011101011100000 /
b1100001100 1
1"
#2210000
0"
b11011010 #
b11011010 &
b11011010 2
#2215000
b10101001100111100101011000110100 !
b10101001100111100101011000110100 /
b1011111000 1
1"
#2220000
0"
b11011011 #
b11011011 &
b11011011 2
#2225000
b10100101010001001111000110001000 !
b10100101010001001111000110001000 /
b1011100100 1
1"
#2230000
0"
b11011100 #
b11011100 &
b11011100 2
#2235000
b10100000111010111000110011011100 !
b10100000111010111000110011011100 /
b1011010000 1
1"
#2240000
0"
b11011101 #
b11011101 &
b11011101 2
#2245000
b10011100100100100010100000110000 !
b10011100100100100010100000110000 /
b1010111100 1
1"
#2250000
0"
b11011110 #
b11011110 &
b11011110 2
#2255000
b10011000001110001100001110000100 !
b10011000001110001100001110000100 /
b1010101000 1
1"
#2260000
0"
b11011111 #
b11011111 &
b11011111 2
#2265000
b10010011110111110101111011011000 !
b10010011110111110101111011011000 /
b1010010100 1
1"
#2270000
0"
b11100000 #
b11100000 &
b11100000 2
#2275000
b10001111100001011111101000101100 !
b10001111100001011111101000101100 /
b1010000000 1
1"
#2280000
0"
b11100001 #
b11100001 &
b11100001 2
#2285000
b10001011001011001001010110000000 !
b10001011001011001001010110000000 /
b1001101100 1
1"
#2290000
0"
b11100010 #
b11100010 &
b11100010 2
#2295000
b10000110110100110011000011010100 !
b10000110110100110011000011010100 /
b1001011000 1
1"
#2300000
0"
b11100011 #
b11100011 &
b11100011 2
#2305000
b10000010011110011100110000101000 !
b10000010011110011100110000101000 /
b1001000100 1
1"
#2310000
0"
b11100100 #
b11100100 &
b11100100 2
#2315000
b1111110001000000110011101111100 !
b1111110001000000110011101111100 /
b1000110000 1
1"
#2320000
0"
b11100101 #
b11100101 &
b11100101 2
#2325000
b1111001110001110000001011010000 !
b1111001110001110000001011010000 /
b1000011100 1
1"
#2330000
0"
b11100110 #
b11100110 &
b11100110 2
#2335000
b1110101011011011001111000100100 !
b1110101011011011001111000100100 /
b1000001000 1
1"
#2340000
0"
b11100111 #
b11100111 &
b11100111 2
#2345000
b1110001000101000011100101111000 !
b1110001000101000011100101111000 /
b111110100 1
1"
#2350000
0"
b11101000 #
b11101000 &
b11101000 2
#2355000
b1101100101110101101010011001100 !
b1101100101110101101010011001100 /
b111100000 1
1"
#2360000
0"
b11101001 #
b11101001 &
b11101001 2
#2365000
b1101000011000010111000000100000 !
b1101000011000010111000000100000 /
b111001100 1
1"
#2370000
0"
b11101010 #
b11101010 &
b11101010 2
#2375000
b1100100000010000000101101110100 !
b1100100000010000000101101110100 /
b110111000 1
1"
#2380000
0"
b11101011 #
b11101011 &
b11101011 2
#2385000
b1011111101011101010011011001000 !
b1011111101011101010011011001000 /
b110100100 1
1"
#2390000
0"
b11101100 #
b11101100 &
b11101100 2
#2395000
b1011011010101010100001000011100 !
b1011011010101010100001000011100 /
b110010000 1
1"
#2400000
0"
b11101101 #
b11101101 &
b11101101 2
#2405000
b1010110111110111101110101110000 !
b1010110111110111101110101110000 /
b101111100 1
1"
#2410000
0"
b11101110 #
b11101110 &
b11101110 2
#2415000
b1010010101000100111100011000100 !
b1010010101000100111100011000100 /
b101101000 1
1"
#2420000
0"
b11101111 #
b11101111 &
b11101111 2
#2425000
b1001110010010010001010000011000 !
b1001110010010010001010000011000 /
b101010100 1
1"
#2430000
0"
b11110000 #
b11110000 &
b11110000 2
#2435000
b1001001111011111010111101101100 !
b1001001111011111010111101101100 /
b101000000 1
1"
#2440000
0"
b11110001 #
b11110001 &
b11110001 2
#2445000
b1000101100101100100101011000000 !
b1000101100101100100101011000000 /
b100101100 1
1"
#2450000
0"
b11110010 #
b11110010 &
b11110010 2
#2455000
b1000001001111001110011000010100 !
b1000001001111001110011000010100 /
b100011000 1
1"
#2460000
0"
b11110011 #
b11110011 &
b11110011 2
#2465000
b111100111000111000000101101000 !
b111100111000111000000101101000 /
b100000100 1
1"
#2470000
0"
b11110100 #
b11110100 &
b11110100 2
#2475000
b111000100010100001110010111100 !
b111000100010100001110010111100 /
b11110000 1
1"
#2480000
0"
b11110101 #
b11110101 &
b11110101 2
#2485000
b110100001100001011100000010000 !
b110100001100001011100000010000 /
b11011100 1
1"
#2490000
0"
b11110110 #
b11110110 &
b11110110 2
#2495000
b101111110101110101001101100100 !
b101111110101110101001101100100 /
b11001000 1
1"
#2500000
0"
b11110111 #
b11110111 &
b11110111 2
#2505000
b101011011111011110111010111000 !
b101011011111011110111010111000 /
b10110100 1
1"
#2510000
0"
b11111000 #
b11111000 &
b11111000 2
#2515000
b100111001001001000101000001100 !
b100111001001001000101000001100 /
b10100000 1
1"
#2520000
0"
b11111001 #
b11111001 &
b11111001 2
#2525000
b100010110010110010010101100000 !
b100010110010110010010101100000 /
b10001100 1
1"
#2530000
0"
b11111010 #
b11111010 &
b11111010 2
#2535000
b11110011100011100000010110100 !
b11110011100011100000010110100 /
b1111000 1
1"
#2540000
0"
b11111011 #
b11111011 &
b11111011 2
#2545000
b11010000110000101110000001000 !
b11010000110000101110000001000 /
b1100100 1
1"
#2550000
0"
b11111100 #
b11111100 &
b11111100 2
#2555000
b10101101111101111011101011100 !
b10101101111101111011101011100 /
b1010000 1
1"
#2560000
0"
b11111101 #
b11111101 &
b11111101 2
#2565000
b10001011001011001001010110000 !
b10001011001011001001010110000 /
b111100 1
1"
#2570000
0"
b11111110 #
b11111110 &
b11111110 2
#2575000
b1101000011000010111000000100 !
b1101000011000010111000000100 /
b101000 1
1"
#2580000
0"
b11111111 #
b11111111 &
b11111111 2
#2585000
b1000101100101100100101011000 !
b1000101100101100100101011000 /
b10100 1
1"
#2590000
0"
b100000000 #
b100000000 &
b100000000 2
#2595000
b100010110010110010010101100 !
b100010110010110010010101100 /
b0 1
1"
#2600000
0"
b100000001 #
b100000001 &
b100000001 2
#2605000
b0 !
b0 /
1"
#2610000
0"
b100000010 #
b100000010 &
b100000010 2
#2615000
1"
#2620000
0"
b100000011 #
b100000011 &
b100000011 2
#2625000
1"
#2630000
0"
b100000100 #
b100000100 &
b100000100 2
#2635000
1"
#2640000
0"
b100000101 #
b100000101 &
b100000101 2
#2645000
1"
#2650000
0"
b100000110 #
b100000110 &
b100000110 2
#2655000
1"
#2660000
0"
b100000111 #
b100000111 &
b100000111 2
#2665000
1"
#2670000
0"
b100001000 #
b100001000 &
b100001000 2
#2675000
1"
#2680000
0"
b100001001 #
b100001001 &
b100001001 2
#2685000
1"
#2690000
0"
b100001010 #
b100001010 &
b100001010 2
#2695000
1"
#2700000
0"
b100001011 #
b100001011 &
b100001011 2
#2705000
1"
#2710000
0"
b100001100 #
b100001100 &
b100001100 2
#2715000
1"
#2720000
0"
b100001101 #
b100001101 &
b100001101 2
#2725000
1"
#2730000
0"
b100001110 #
b100001110 &
b100001110 2
#2735000
1"
#2740000
0"
b100001111 #
b100001111 &
b100001111 2
#2745000
1"
#2750000
0"
b100010000 #
b100010000 &
b100010000 2
#2755000
1"
#2760000
0"
b100010001 #
b100010001 &
b100010001 2
#2765000
1"
#2770000
0"
b100010010 #
b100010010 &
b100010010 2
#2775000
1"
#2780000
0"
b100010011 #
b100010011 &
b100010011 2
#2785000
1"
#2790000
0"
b100010100 #
b100010100 &
b100010100 2
#2795000
1"
#2800000
0"
b100010101 #
b100010101 &
b100010101 2
#2805000
1"
#2810000
0"
b100010110 #
b100010110 &
b100010110 2
#2815000
1"
#2820000
0"
b100010111 #
b100010111 &
b100010111 2
#2825000
1"
#2830000
0"
b100011000 #
b100011000 &
b100011000 2
#2835000
1"
#2840000
0"
b100011001 #
b100011001 &
b100011001 2
#2845000
1"
#2850000
0"
b100011010 #
b100011010 &
b100011010 2
#2855000
1"
#2860000
0"
b100011011 #
b100011011 &
b100011011 2
#2865000
1"
#2870000
0"
b100011100 #
b100011100 &
b100011100 2
#2875000
1"
#2880000
0"
b100011101 #
b100011101 &
b100011101 2
#2885000
1"
#2890000
0"
b100011110 #
b100011110 &
b100011110 2
#2895000
1"
#2900000
0"
b100011111 #
b100011111 &
b100011111 2
#2905000
1"
#2910000
0"
b100100000 #
b100100000 &
b100100000 2
#2915000
1"
#2920000
0"
b100100001 #
b100100001 &
b100100001 2
#2925000
1"
#2930000
0"
b100100010 #
b100100010 &
b100100010 2
#2935000
1"
#2940000
0"
b100100011 #
b100100011 &
b100100011 2
#2945000
1"
#2950000
0"
b100100100 #
b100100100 &
b100100100 2
#2955000
1"
#2960000
0"
b100100101 #
b100100101 &
b100100101 2
#2965000
1"
#2970000
0"
b100100110 #
b100100110 &
b100100110 2
#2975000
1"
#2980000
0"
b100100111 #
b100100111 &
b100100111 2
#2985000
1"
#2990000
0"
b100101000 #
b100101000 &
b100101000 2
#2995000
1"
#3000000
0"
b100101001 #
b100101001 &
b100101001 2
#3005000
1"
#3010000
0"
b100101010 #
b100101010 &
b100101010 2
#3015000
1"
#3020000
0"
b100101011 #
b100101011 &
b100101011 2
#3025000
1"
#3030000
0"
b100101100 #
b100101100 &
b100101100 2
#3035000
1"
#3040000
0"
b100101101 #
b100101101 &
b100101101 2
#3045000
1"
#3050000
0"
b100101110 #
b100101110 &
b100101110 2
#3055000
1"
#3060000
0"
b100101111 #
b100101111 &
b100101111 2
#3065000
1"
#3070000
0"
b100110000 #
b100110000 &
b100110000 2
#3075000
1"
